Division,WeightClassKg,Place,Name,Team,BodyweightKg,Best3SquatKg,Best3BenchKg,Best3DeadliftKg,TotalKg,Equipment,Event,Sex
Boys,51.71,1,Pablo Gutierrez #1,Mount Pleasant,49.44,106.59,61.23,129.27,297.1,Single-ply,SBD,M
Boys,51.71,2,Junior Chavez,Waxahachie,49.9,99.79,65.77,122.47,288.03,Single-ply,SBD,M
Boys,51.71,3,Tyce Johnson,Bullard,46.27,97.52,68.04,113.4,278.96,Single-ply,SBD,M
Boys,51.71,4,Brandon Stidham,Gladewater Sabine,47.17,97.52,56.7,124.74,278.96,Single-ply,SBD,M
Boys,51.71,5,Landon Warren,Bullard,47.63,74.84,47.63,90.72,213.19,Single-ply,SBD,M
Boys,51.71,6,Kace Cotten,Waxahachie,46.72,68.04,47.63,88.45,204.12,Single-ply,SBD,M
Boys,51.71,7,Jason Botkin,Corsicana,47.17,70.31,43.09,79.38,192.78,Single-ply,SBD,M
Boys,55.79,1,Tony Delacruz,Waxahachie,55.34,113.4,65.77,136.08,315.25,Single-ply,SBD,M
Boys,55.79,2,Eddie Hernandez,New London West Rusk,55.34,111.13,70.31,124.74,306.17,Single-ply,SBD,M
Boys,55.79,3,Eric Hernandez,New London West Rusk,52.16,102.06,70.31,129.27,301.64,Single-ply,SBD,M
Boys,55.79,4,Justin Villatoro,Palestine,55.79,102.06,72.57,122.47,297.1,Single-ply,SBD,M
Boys,55.79,5,Jaidon Garrick,Lindale,52.89,104.33,58.97,120.2,283.5,Single-ply,SBD,M
Boys,55.79,6,Javi Zamora,Palestine,54.43,97.52,52.16,113.4,263.08,Single-ply,SBD,M
Boys,55.79,7,Jose Esquivel,Corsicana,54.88,90.72,49.9,104.33,244.94,Single-ply,SBD,M
Boys,59.87,1,Christian Contreras #3,Greenville,58.97,170.1,102.06,149.69,421.84,Single-ply,SBD,M
Boys,59.87,2,Daniel Landaverde,Mount Pleasant,58.97,136.08,83.91,161.03,381.02,Single-ply,SBD,M
Boys,59.87,3,Jaden Taylor,Lindale,58.15,147.42,72.57,149.69,369.68,Single-ply,SBD,M
Boys,59.87,4,Carter Winegeart,Tyler Lee,58.06,131.54,70.31,142.88,344.73,Single-ply,SBD,M
Boys,59.87,5,Noble Giles,Frankston,59.42,122.47,68.04,138.35,328.85,Single-ply,SBD,M
Boys,59.87,6,Deandre Brown,Corsicana,57.61,113.4,70.31,124.74,308.44,Single-ply,SBD,M
Boys,59.87,7,Matthew Thompson #5,Palestine,58.06,79.38,83.91,124.74,288.03,Single-ply,SBD,M
Boys,59.87,8,John McWhoter,Lindale,59.33,106.59,54.43,124.74,285.76,Single-ply,SBD,M
Boys,59.87,9,Bret Timme,Bullard,59.42,111.13,65.77,102.06,278.96,Single-ply,SBD,M
Boys,59.87,10,Juan Castanon,Mount Pleasant,57.15,102.06,58.97,113.4,274.42,Single-ply,SBD,M
Boys,59.87,11,Marc Monsivais,Ore City,56.7,99.79,52.16,106.59,258.55,Single-ply,SBD,M
Boys,59.87,12,Christian Lacy,Ore City,59.42,81.65,43.09,108.86,233.6,Single-ply,SBD,M
Boys,67.13,1,Andrew Magedson,Greenville,66.22,206.38,102.06,199.58,508.02,Single-ply,SBD,M
Boys,67.13,2,Nick Henderson,Waxahachie,62.6,165.56,81.65,181.44,428.64,Single-ply,SBD,M
Boys,67.13,3,Josh Williams,Troup,66.68,163.29,70.31,183.7,417.3,Single-ply,SBD,M
Boys,67.13,4,Gustavo Hilario,Tyler Lee,65.32,142.88,90.72,179.17,412.77,Single-ply,SBD,M
Boys,67.13,5,Andrew Spellman,Lindale,61.78,154.22,72.57,167.83,394.63,Single-ply,SBD,M
Boys,67.13,6,Chadd Cole,Troup,64.41,133.81,90.72,158.76,383.29,Single-ply,SBD,M
Boys,67.13,7,Daniel Leon,Troup,65.77,136.08,83.91,158.76,378.75,Single-ply,SBD,M
Boys,67.13,8,James Jacobs #3,Gladewater Sabine,62.6,117.93,74.84,163.29,356.07,Single-ply,SBD,M
Boys,67.13,9,David Lindsey,Winona,65.77,136.08,63.5,136.08,335.66,Single-ply,SBD,M
Boys,67.13,10,Zavion Jackson,Greenville,66.68,131.54,83.91,120.2,335.66,Single-ply,SBD,M
Boys,67.13,11,Clayton Carnes,Frankston,63.5,120.2,72.57,138.35,331.12,Single-ply,SBD,M
Boys,67.13,12,Jamichael Turman,Tyler Lee,64.86,124.74,58.97,136.08,319.78,Single-ply,SBD,M
Boys,67.13,13,Ben Workmen,Frankston,61.69,113.4,61.23,138.35,312.98,Single-ply,SBD,M
Boys,67.13,14,Hayden Keller,Sulphur Springs,61.23,111.13,72.57,124.74,308.44,Single-ply,SBD,M
Boys,67.13,15,Christian Cervantes,Mount Pleasant,65.77,97.52,61.23,131.54,290.3,Single-ply,SBD,M
Boys,67.13,16,Ethan Mays,Mount Pleasant,61.23,70.31,36.29,90.72,197.31,Single-ply,SBD,M
Boys,67.13,DQ,JJ Beckfield,Frankston,60.33,147.42,61.23,,,Single-ply,SBD,M
Boys,67.13,DQ,Robtert Sdorzarro,Greenville,60.78,124.74,74.84,,,Single-ply,SBD,M
Boys,67.13,DQ,Brian Harris,Winona,67.13,113.4,,,,Single-ply,SBD,M
Boys,67.13,DQ,Alec Morris,Gladewater Sabine,63.05,113.4,,,,Single-ply,SBD,M
Boys,74.84,1,Toby Thatcher,Bullard,73.94,240.4,140.61,222.26,603.28,Single-ply,SBD,M
Boys,74.84,2,Cam Morris,Waxahachie,74.39,185.97,115.67,204.12,505.76,Single-ply,SBD,M
Boys,74.84,3,Irric Deyon,Palestine,71.21,165.56,106.59,197.31,469.47,Single-ply,SBD,M
Boys,74.84,4,Tyler Gray,Palestine,68.95,156.49,97.52,176.9,430.91,Single-ply,SBD,M
Boys,74.84,5,Jesus Perez,Mount Pleasant,71.21,174.63,83.91,172.37,430.91,Single-ply,SBD,M
Boys,74.84,6,Michael Zuniga,Troup,70.76,140.61,108.86,174.63,424.11,Single-ply,SBD,M
Boys,74.84,7,Carson Bridges,Sulphur Springs,73.03,154.22,97.52,172.37,424.11,Single-ply,SBD,M
Boys,74.84,8,Dakota Wallace,Troup,74.39,151.95,102.06,170.1,424.11,Single-ply,SBD,M
Boys,74.84,9,Chase Welvert,Lindale,73.57,161.03,95.25,161.03,417.3,Single-ply,SBD,M
Boys,74.84,10,LaDarron Jones,New London West Rusk,69.85,151.95,72.57,181.44,405.97,Single-ply,SBD,M
Boys,74.84,11,Landry Tyson,Sulphur Springs,73.03,142.88,86.18,158.76,387.82,Single-ply,SBD,M
Boys,74.84,12,Garrett Sims,Lindale,73.71,147.42,79.38,158.76,385.55,Single-ply,SBD,M
Boys,74.84,13,Lanton McKinney,Gladewater Sabine,72.12,129.27,79.38,136.08,344.73,Single-ply,SBD,M
Boys,74.84,14,Keshawn Nonette,Palestine,73.48,113.4,88.45,136.08,337.93,Single-ply,SBD,M
Boys,74.84,15,Cade Hollingsworth,Bullard,73.94,113.4,74.84,142.88,331.12,Single-ply,SBD,M
Boys,74.84,16,Hunter McNutt,Winona,72.57,99.79,79.38,147.42,326.59,Single-ply,SBD,M
Boys,74.84,17,Daniel Wood,Gladewater Sabine,74.39,124.74,65.77,136.08,326.59,Single-ply,SBD,M
Boys,74.84,18,Kole Stripland,Gladewater Sabine,68.04,86.18,63.5,113.4,263.08,Single-ply,SBD,M
Boys,74.84,19,Aaren Webb,Gladewater Sabine,72.12,90.72,56.7,102.06,249.48,Single-ply,SBD,M
Boys,74.84,DQ,Jeremy Glenn,Greenville,74.84,,,,,Single-ply,SBD,M
Boys,82.1,1,Austin Davis,Bullard,79.38,226.8,129.27,204.12,560.19,Single-ply,SBD,M
Boys,82.1,2,Ramiro Martinez,Troup,79.83,181.44,136.08,233.6,551.11,Single-ply,SBD,M
Boys,82.1,3,Cor'tavius Pruitt,Sulphur Springs,76.2,195.04,117.93,195.04,508.02,Single-ply,SBD,M
Boys,82.1,4,Cameron Watson #1,Tyler Lee,78.02,197.31,92.99,199.58,489.88,Single-ply,SBD,M
Boys,82.1,5,Bryan Mendez,Waxahachie,77.11,156.49,97.52,183.7,437.72,Single-ply,SBD,M
Boys,82.1,6,Adam Caudle,Gladewater Sabine,78.02,165.56,92.99,174.63,433.18,Single-ply,SBD,M
Boys,82.1,7,Grant Sims,Lindale,77.93,163.29,97.52,161.03,421.84,Single-ply,SBD,M
Boys,82.1,8,Payton Aylor,Bullard,79.38,158.76,97.52,156.49,412.77,Single-ply,SBD,M
Boys,82.1,9,Grayson Sims,Lindale,79.47,154.22,83.91,161.03,399.16,Single-ply,SBD,M
Boys,82.1,10,Roderick Deyon,Palestine,79.83,124.74,115.67,158.76,399.16,Single-ply,SBD,M
Boys,82.1,11,Justin Ortiz,Frankston,82.1,136.08,86.18,147.42,369.68,Single-ply,SBD,M
Boys,82.1,12,Kaleb Mills,Sulphur Springs,78.47,127.01,83.91,136.08,347,Single-ply,SBD,M
Boys,82.1,13,Kaden Loebig,Frankston,77.11,117.93,83.91,142.88,344.73,Single-ply,SBD,M
Boys,82.1,14,Jonathan Woods #1,Mount Pleasant,78.47,138.35,70.31,124.74,333.39,Single-ply,SBD,M
Boys,82.1,15,Jamen Blalock,Ore City,76.66,113.4,58.97,127.01,299.37,Single-ply,SBD,M
Boys,82.1,16,Cash Steck,Ore City,75.75,102.06,74.84,108.86,285.76,Single-ply,SBD,M
Boys,82.1,17,Caden Kutach,Bullard,80.74,83.91,72.57,106.59,263.08,Single-ply,SBD,M
Boys,82.1,18,Alan Rodriguez,Mount Pleasant,79.83,86.18,52.16,90.72,229.06,Single-ply,SBD,M
Boys,89.81,1,David Bledsoe,Lindale,88.81,215.46,129.27,213.19,557.92,Single-ply,SBD,M
Boys,89.81,2,Jansen Mottingly,Bullard,83.01,201.85,120.2,201.85,523.9,Single-ply,SBD,M
Boys,89.81,3,Matthew Rolen,Waxahachie,85.28,181.44,120.2,183.7,485.34,Single-ply,SBD,M
Boys,89.81,4,Tucker Momon,Greenville,88,188.24,97.52,183.7,469.47,Single-ply,SBD,M
Boys,89.81,5,Cole Hobbs,Gladewater Sabine,84.82,174.63,97.52,170.1,442.25,Single-ply,SBD,M
Boys,89.81,6,Dernell Reid,Tyler Lee,83.46,165.56,97.52,167.83,430.91,Single-ply,SBD,M
Boys,89.81,7,Diego Molina,New London West Rusk,85.73,156.49,92.99,174.63,424.11,Single-ply,SBD,M
Boys,89.81,8,Sean Rodgers,Sulphur Springs,87.54,163.29,106.59,151.95,421.84,Single-ply,SBD,M
Boys,89.81,9,Grayson Priestner,Bullard,88,151.95,102.06,161.03,415.04,Single-ply,SBD,M
Boys,89.81,10,Walt Richardson,Palestine,88.9,151.95,88.45,165.56,405.97,Single-ply,SBD,M
Boys,89.81,11,Emmanuel Moreno,Mount Pleasant,89.81,122.47,65.77,120.2,308.44,Single-ply,SBD,M
Boys,89.81,12,Blake Mays,Mount Pleasant,84.82,102.06,70.31,88.45,260.82,Single-ply,SBD,M
Boys,89.81,DQ,Daniel Cortez,Winona,89.81,181.44,,,,Single-ply,SBD,M
Boys,99.79,1,Caleb High,Waxahachie,93.89,260.82,158.76,249.48,669.05,Single-ply,SBD,M
Boys,99.79,2,Nick Stewart,Waxahachie,97.52,249.48,158.76,231.33,639.57,Single-ply,SBD,M
Boys,99.79,3,Trent Allen,Troup,99.34,244.94,147.42,226.8,619.15,Single-ply,SBD,M
Boys,99.79,4,Ty McDaniel,Lindale,96.71,249.48,122.47,222.26,594.21,Single-ply,SBD,M
Boys,99.79,5,Thomas Brooks,Bullard,93.89,226.8,142.88,183.7,553.38,Single-ply,SBD,M
Boys,99.79,6,Parker Musselwhite,Tyler Lee,93.89,215.46,104.33,226.8,546.58,Single-ply,SBD,M
Boys,99.79,7,Simon Rico,Greenville,99.79,226.8,113.4,204.12,544.31,Single-ply,SBD,M
Boys,99.79,8,D'Idrec Dugan,Sulphur Springs,98.88,204.12,117.93,215.46,537.51,Single-ply,SBD,M
Boys,99.79,9,Jesse Owen,Frankston,98.43,219.99,127.01,188.24,535.24,Single-ply,SBD,M
Boys,99.79,10,James Perales,Tyler Lee,98.88,192.78,129.27,206.38,528.44,Single-ply,SBD,M
Boys,99.79,11,Melvin Martin,Corsicana,99.34,181.44,113.4,204.12,498.95,Single-ply,SBD,M
Boys,99.79,12,Tristan Williams,Corsicana,93.44,172.37,111.13,188.24,471.74,Single-ply,SBD,M
Boys,99.79,13,David Allen,Troup,90.26,181.44,113.4,158.76,453.59,Single-ply,SBD,M
Boys,99.79,14,Stuart Edmonds,Corsicana,98.43,156.49,106.59,170.1,433.18,Single-ply,SBD,M
Boys,99.79,15,Blake Belobraydie,Tyler Lee,97.07,165.56,86.18,165.56,417.3,Single-ply,SBD,M
Boys,99.79,16,Edher Oviedo,Mount Pleasant,94.8,136.08,90.72,142.88,369.68,Single-ply,SBD,M
Boys,99.79,17,Keith Ritter,Ore City,92.53,113.4,95.25,142.88,351.53,Single-ply,SBD,M
Boys,99.79,18,Parker Mizeil,New London West Rusk,93.44,102.06,83.91,147.42,333.39,Single-ply,SBD,M
Boys,99.79,19,Noe Yepez,Winona,94.35,102.06,79.38,129.27,310.71,Single-ply,SBD,M
Boys,99.79,20,Tyler Cardenas,Ore City,90.72,102.06,70.31,136.08,308.44,Single-ply,SBD,M
Boys,99.79,DQ,D. Reed,Ore City,93.44,,,,,Single-ply,SBD,M
Boys,109.77,1,Anthony Perez,Waxahachie,107.5,240.4,172.37,238.14,650.91,Single-ply,SBD,M
Boys,109.77,2,Reece Clark,Troup,108.86,249.48,147.42,251.74,648.64,Single-ply,SBD,M
Boys,109.77,3,Andrew Turner,Mount Pleasant,100.7,249.48,147.42,249.48,646.37,Single-ply,SBD,M
Boys,109.77,4,Deonundre Hatton,Palestine,103.42,201.85,156.49,183.7,542.04,Single-ply,SBD,M
Boys,109.77,5,Jacob Faulk,Bullard,106.59,188.24,122.47,215.46,526.17,Single-ply,SBD,M
Boys,109.77,6,Oscar Osario,Greenville,105.69,206.38,120.2,197.31,523.9,Single-ply,SBD,M
Boys,109.77,7,Santiago Castillo,Lindale,107.5,201.85,108.86,204.12,514.83,Single-ply,SBD,M
Boys,109.77,8,Seth White,Corsicana,106.14,206.38,115.67,183.7,505.76,Single-ply,SBD,M
Boys,109.77,9,David Antunez,Tyler Lee,106.59,192.78,115.67,183.7,492.15,Single-ply,SBD,M
Boys,109.77,10,Ignacio Guerrero,Sulphur Springs,100.24,188.24,117.93,158.76,464.93,Single-ply,SBD,M
Boys,109.77,11,Jake Coreley,Lindale,109.77,176.9,102.06,176.9,455.86,Single-ply,SBD,M
Boys,109.77,12,Kenny Castro,Corsicana,102.51,161.03,106.59,170.1,437.72,Single-ply,SBD,M
Boys,109.77,13,Joel Guerrero,Mount Pleasant,101.15,181.44,90.72,147.42,419.57,Single-ply,SBD,M
Boys,109.77,14,Jose Rodriguez,Sulphur Springs,102.51,142.88,108.86,151.95,403.7,Single-ply,SBD,M
Boys,109.77,15,David Hart,Ore City,107.95,117.93,61.23,129.27,308.44,Single-ply,SBD,M
Boys,109.77,16,Jackson Robert,Bullard,103.87,108.86,72.57,104.33,285.76,Single-ply,SBD,M
Boys,109.77,17,Aj Leyva,Ore City,107.05,81.65,68.04,122.47,272.16,Single-ply,SBD,M
Boys,124.74,1,Ian Blanch,Sulphur Springs,112.94,244.94,129.27,226.8,601.01,Single-ply,SBD,M
Boys,124.74,2,Josh Porter,Frankston,117.03,204.12,142.88,244.94,591.94,Single-ply,SBD,M
Boys,124.74,3,Matthew Davidson,New London West Rusk,110.68,233.6,117.93,217.72,569.26,Single-ply,SBD,M
Boys,124.74,4,DeAunte Thomas,Corsicana,116.12,224.53,136.08,204.12,564.72,Single-ply,SBD,M
Boys,124.74,5,Matt Edwards,Lindale,124.28,204.12,122.47,192.78,519.36,Single-ply,SBD,M
Boys,124.74,6,Jacob Roland,Tyler Lee,114.31,206.38,97.52,197.31,501.22,Single-ply,SBD,M
Boys,124.74,7,Cason Cheney,Lindale,119.2,204.12,99.79,176.9,480.81,Single-ply,SBD,M
Boys,124.74,8,Jesus Olivio,Sulphur Springs,121.11,183.7,108.86,154.22,446.79,Single-ply,SBD,M
Boys,124.74,9,Bradley Milligan,Corsicana,123.83,142.88,97.52,163.29,403.7,Single-ply,SBD,M
Boys,124.74,10,Blake Denson,Mount Pleasant,124.28,147.42,90.72,147.42,385.55,Single-ply,SBD,M
Boys,124.74+,1,Malik Gilliam,Troup,165.56,278.96,142.88,215.46,637.3,Single-ply,SBD,M
Boys,124.74+,2,Larry Davis,Corsicana,157.85,238.14,176.9,208.65,623.69,Single-ply,SBD,M
Boys,124.74+,3,Jesus Garcia-Castillo,Palestine,159.21,229.06,147.42,226.8,603.28,Single-ply,SBD,M
Boys,124.74+,4,Deontae Martin,Corsicana,138.8,226.8,138.35,231.33,596.47,Single-ply,SBD,M
Boys,124.74+,5,Ernesto Lopez,Greenville,133.81,249.48,145.15,197.31,591.94,Single-ply,SBD,M
Boys,124.74+,6,Manuel Saavedra,Greenville,152.86,272.16,136.08,183.7,591.94,Single-ply,SBD,M
Boys,124.74+,7,Caleb Carlile,Waxahachie,139.71,222.26,136.08,204.12,562.45,Single-ply,SBD,M
Boys,124.74+,8,Corbin Johnson,Lindale,141.79,240.4,131.54,190.51,562.45,Single-ply,SBD,M
Boys,124.74+,9,Logan DeGarso,Greenville,140.16,233.6,131.54,195.04,560.19,Single-ply,SBD,M
Boys,124.74+,10,John Campbell,Bullard,141.52,226.8,108.86,183.7,519.36,Single-ply,SBD,M
Boys,124.74+,11,Dejuan Ealy,Palestine,125.65,199.58,142.88,174.63,517.1,Single-ply,SBD,M
Boys,124.74+,12,Norris English,Sulphur Springs,153.77,219.99,115.67,181.44,517.1,Single-ply,SBD,M
Boys,124.74+,13,Jaiv Velazquez,Greenville,131.54,233.6,108.86,172.37,514.83,Single-ply,SBD,M
Boys,124.74+,14,Jake Jonaitis,Sulphur Springs,143.79,240.4,104.33,170.1,514.83,Single-ply,SBD,M
Boys,124.74+,15,Notorious Davis,Corsicana,136.08,195.04,127.01,185.97,508.02,Single-ply,SBD,M
Boys,124.74+,16,Jesus Nunez,Corsicana,138.35,204.12,113.4,170.1,487.61,Single-ply,SBD,M
Boys,124.74+,17,William Womack,New London West Rusk,156.49,188.24,102.06,181.44,471.74,Single-ply,SBD,M
Boys,124.74+,18,Devin Lewis,Bullard,150.14,176.9,106.59,170.1,453.59,Single-ply,SBD,M
Boys,124.74+,19,Sam Minehart,Tyler Lee,130.63,151.95,102.06,158.76,412.77,Single-ply,SBD,M
Boys,124.74+,20,Jesse Bullard,Ore City,127.46,117.93,68.04,136.08,322.05,Single-ply,SBD,M
