Division,WeightClassKg,Place,Name,Team,BodyweightKg,Best3SquatKg,Best3BenchKg,Best3DeadliftKg,TotalKg,Equipment,Event,Sex
Girls,44.23,1,Jacqueline Pena,Edinburg Idea College Prep,44,129.27,56.7,127.01,312.98,Single-ply,SBD,F
Girls,44.23,2,Valery Cano,Edinburg Idea College Prep,44,127.01,45.36,117.93,290.3,Single-ply,SBD,F
Girls,44.23,3,Frida Rodriguez,Brownsville Pace,42.37,99.79,56.7,102.06,258.55,Single-ply,SBD,F
Girls,44.23,4,Charley Moreno,Rio Hondo,43.73,97.52,36.29,92.99,226.8,Single-ply,SBD,F
Girls,44.23,5,Brianna De La Rosa,Los Fresnos,44,90.72,34.02,102.06,226.8,Single-ply,SBD,F
Girls,44.23,6,Roxy Cantu,Donna,44,92.99,31.75,95.25,219.99,Single-ply,SBD,F
Girls,44.23,7,Leila Berrones,Weslaco,44.23,95.25,40.82,81.65,217.72,Single-ply,SBD,F
Girls,44.23,8,Nelly Gutierrez,Donna,44,77.11,38.56,88.45,204.12,Single-ply,SBD,F
Girls,44.23,DQ,Laura Garza,Pharr Valley View,44.23,,,,,Single-ply,SBD,F
Girls,44.23,DQ,Arely Ortega,Edinburg Quest College Prep,44,108.86,,,,Single-ply,SBD,F
Girls,47.85,1,Yaira Velez,Rio Hondo,47.81,117.93,74.84,117.93,310.71,Single-ply,SBD,F
Girls,47.85,2,Anna Marie Rodriguez,Los Fresnos,47.63,90.72,40.82,104.33,235.87,Single-ply,SBD,F
Girls,47.85,3,Clarissa Rivera #1,La Feria,47.72,88.45,34.02,92.99,215.46,Single-ply,SBD,F
Girls,47.85,4,Daisy Herrera,Monte Alto,47.81,86.18,31.75,97.52,215.46,Single-ply,SBD,F
Girls,47.85,5,Ariel Rendon,PSJA,47.63,70.31,36.29,77.11,183.7,Single-ply,SBD,F
Girls,47.85,DQ,Nadra Gonzalez,Pharr Valley View,47.85,,,,,Single-ply,SBD,F
Girls,47.85,DQ,Michelle Salaya,Weslaco,47.85,,,,,Single-ply,SBD,F
Girls,47.85,DQ,Jaaziel Lopez,Donna,47.63,,,,,Single-ply,SBD,F
Girls,47.85,DQ,Annalysa Martinez,Brownsville Pace,47.63,,,,,Single-ply,SBD,F
Girls,51.94,1,Daisy Hernandez,Weslaco,51.94,124.74,70.31,136.08,331.12,Single-ply,SBD,F
Girls,51.94,2,Viviana Lopez,Port Isabel,51.71,122.47,56.7,129.27,308.44,Single-ply,SBD,F
Girls,51.94,3,Alexandria Garcia,Los Fresnos,51.71,115.67,54.43,124.74,294.84,Single-ply,SBD,F
Girls,51.94,4,Mitzi Juarez,Donna,51.71,90.72,45.36,86.18,222.26,Single-ply,SBD,F
Girls,51.94,5,Maya Perez,Los Fresnos,51.71,81.65,34.02,90.72,206.38,Single-ply,SBD,F
Girls,51.94,DQ,Chastity Venecia,McAllen IDEA College Prep,51.71,,,,,Single-ply,SBD,F
Girls,51.94,DQ,Luna Garica,Pharr Valley View,51.94,,,,,Single-ply,SBD,F
Girls,51.94,DQ,Nataly Navarrete,PSJA,51.71,,,,,Single-ply,SBD,F
Girls,51.94,DQ,Ashley Longoria,PSJA,48.63,,,,,Single-ply,SBD,F
Girls,51.94,DQ,Alexa Cavazos,Pharr Valley View,51.94,117.93,,,,Single-ply,SBD,F
Girls,51.94,DQ,Paloma Lopez,Rio Hondo,50.98,120.2,,,,Single-ply,SBD,F
Girls,56.02,1,Jacqueline Sanchez,Donna,53.52,138.35,52.16,129.27,319.78,Single-ply,SBD,F
Girls,56.02,2,Gianna Rivas,Weslaco,55.16,136.08,63.5,104.33,303.91,Single-ply,SBD,F
Girls,56.02,3,Kat Ruiz,Los Fresnos,54.34,122.47,54.43,124.74,301.64,Single-ply,SBD,F
Girls,56.02,4,Alyzza Ortiz,Edinburg Quest College Prep,53.71,122.47,61.23,111.13,294.84,Single-ply,SBD,F
Girls,56.02,5,Alexandria Garcia,Los Fresnos,55.16,117.93,52.16,122.47,292.57,Single-ply,SBD,F
Girls,56.02,6,Angela Sandoval,Donna,55.07,108.86,43.09,117.93,269.89,Single-ply,SBD,F
Girls,56.02,7,Kayla de la Fuente,La Feria,55.88,104.33,47.63,113.4,265.35,Single-ply,SBD,F
Girls,56.02,8,Karla Garcia,Brownsville Pace,53.25,102.06,47.63,108.86,258.55,Single-ply,SBD,F
Girls,56.02,9,Jackie Perez,Port Isabel,54.98,92.99,47.63,113.4,254.01,Single-ply,SBD,F
Girls,56.02,10,Alexandra Davila,Brownsville Pace,55.79,104.33,43.09,102.06,249.48,Single-ply,SBD,F
Girls,56.02,11,Melissa Barrios,Donna,52.89,92.99,43.09,86.18,222.26,Single-ply,SBD,F
Girls,56.02,12,Lindsy Gutierrez,La Villa,54.79,102.06,45.36,74.84,222.26,Single-ply,SBD,F
Girls,56.02,13,Brianna Rodriguez,PSJA,55.97,92.99,36.29,81.65,210.92,Single-ply,SBD,F
Girls,56.02,14,Clarissa Flores,Los Fresnos,55.88,81.65,36.29,74.84,192.78,Single-ply,SBD,F
Girls,56.02,DQ,Keila Castellanos,Pharr Valley View,56.02,,,,,Single-ply,SBD,F
Girls,56.02,DQ,Leslie Losoya,La Feria,55.79,,,,,Single-ply,SBD,F
Girls,56.02,DQ,Alejandra Reyes #2,Edinburg Quest College Prep,55.79,,,,,Single-ply,SBD,F
Girls,56.02,DQ,Taeecija Vickmark,Edinburg Quest College Prep,55.79,,,,,Single-ply,SBD,F
Girls,56.02,DQ,Delicia Drain,Edinburg Quest College Prep,55.79,79.38,,,,Single-ply,SBD,F
Girls,56.02,DQ,Adamari Martinez,PSJA,55.79,,,,,Single-ply,SBD,F
Girls,60.1,1,Julianna Barrera,Port Isabel,59.87,170.1,77.11,154.22,401.43,Single-ply,SBD,F
Girls,60.1,2,Lilian Lara,Weslaco,60.1,140.61,61.23,127.01,328.85,Single-ply,SBD,F
Girls,60.1,3,Luisa Rodriguez,PSJA,59.87,136.08,54.43,124.74,315.25,Single-ply,SBD,F
Girls,60.1,4,Isis Sandiford,Edinburg Idea College Prep,59.87,115.67,52.16,131.54,299.37,Single-ply,SBD,F
Girls,60.1,5,Julie del Bosque,Rio Hondo,57.06,117.93,52.16,127.01,297.1,Single-ply,SBD,F
Girls,60.1,6,America Navarro,Pharr Valley View,58.33,108.86,61.23,122.47,292.57,Single-ply,SBD,F
Girls,60.1,7,Ayisha Recio,PSJA,59.87,122.47,47.63,111.13,281.23,Single-ply,SBD,F
Girls,60.1,8,Ayanna Rangel,Monte Alto,56.88,115.67,54.43,104.33,274.42,Single-ply,SBD,F
Girls,60.1,9,Asia De Leon,Brownsville Pace,57.88,108.86,52.16,113.4,274.42,Single-ply,SBD,F
Girls,60.1,10,Alondra Gonzalez,Brownsville Pace,57.33,108.86,49.9,95.25,254.01,Single-ply,SBD,F
Girls,60.1,11,Nicole Rivera,Brownsville Pace,57.33,81.65,47.63,95.25,224.53,Single-ply,SBD,F
Girls,60.1,12,Alexis Garcia #1,Los Fresnos,59.87,83.91,43.09,88.45,215.46,Single-ply,SBD,F
Girls,60.1,DQ,America Angeles,McAllen IDEA College Prep,59.96,61.23,,,,Single-ply,SBD,F
Girls,67.36,1,Angela Elvira,PSJA,67.13,147.42,68.04,149.69,365.14,Single-ply,SBD,F
Girls,67.36,2,Mikayla Rodriguez,Rio Hondo,65.77,133.81,63.5,142.88,340.19,Single-ply,SBD,F
Girls,67.36,3,Jordan Torres,Weslaco,67.36,133.81,63.5,122.47,319.78,Single-ply,SBD,F
Girls,67.36,4,Sindy Garcia,Edinburg Idea College Prep,66.22,136.08,61.23,115.67,312.98,Single-ply,SBD,F
Girls,67.36,5,Ruth Avila,Edinburg Quest College Prep,60.96,127.01,52.16,120.2,299.37,Single-ply,SBD,F
Girls,67.36,6,Jasmin Tamez,Donna,67.13,122.47,45.36,117.93,285.76,Single-ply,SBD,F
Girls,67.36,7,Audre Garza,Monte Alto,65.41,115.67,47.63,113.4,276.69,Single-ply,SBD,F
Girls,67.36,8,Stephany Montecinos,Edinburg Quest College Prep,67.13,99.79,54.43,81.65,235.87,Single-ply,SBD,F
Girls,67.36,9,Yolanda Perez,Brownsville Jubilee,67.13,79.38,31.75,104.33,215.46,Single-ply,SBD,F
Girls,67.36,10,Celeste Rodriguez,Lyford,67.36,72.57,47.63,95.25,215.46,Single-ply,SBD,F
Girls,67.36,11,Dailyn Ricaldy,La Feria,67.13,65.77,36.29,95.25,197.31,Single-ply,SBD,F
Girls,67.36,12,Lorena Garza,McAllen IDEA College Prep,67.13,56.7,29.48,68.04,154.22,Single-ply,SBD,F
Girls,67.36,DQ,Italie Gonzalez,Los Fresnos,67.13,,,,,Single-ply,SBD,F
Girls,67.36,DQ,Oyuki Minez,Brownsville Porter,67.13,,,,,Single-ply,SBD,F
Girls,67.36,DQ,Leanna Gonzalez,Rio Hondo,67.13,,,,,Single-ply,SBD,F
Girls,67.36,DQ,Evelyn Cantu,PSJA,66.32,99.79,,,,Single-ply,SBD,F
Girls,67.36,DQ,Erin Salinas,McAllen IDEA College Prep,67.13,47.63,,,,Single-ply,SBD,F
Girls,67.36,DQ,Nadia Ochoa,McAllen IDEA College Prep,66.41,65.77,,,,Single-ply,SBD,F
Girls,67.36,DQ,Jasmine Rendon,PSJA,67.13,,,,,Single-ply,SBD,F
Girls,67.36,DQ,Valerie Guzman,McAllen IDEA College Prep,67.13,,,,,Single-ply,SBD,F
Girls,67.36,DQ,Jackie Medina,Los Fresnos,67.13,127.01,,,,Single-ply,SBD,F
Girls,67.36,DQ,Pamela Torres,La Villa,67.13,,,,,Single-ply,SBD,F
Girls,75.07,1,Carla Bocanegra,Raymondville,72.76,147.42,63.5,145.15,356.07,Single-ply,SBD,F
Girls,75.07,2,Bianca Cardenas,Weslaco,73.57,151.95,68.04,129.27,349.27,Single-ply,SBD,F
Girls,75.07,3,Madelyn Galvan,Port Isabel,68.4,145.15,65.77,124.74,335.66,Single-ply,SBD,F
Girls,75.07,4,Brianna Garcia,Brownsville Pace,69.13,145.15,68.04,115.67,328.85,Single-ply,SBD,F
Girls,75.07,5,Lizette Zuniga,Rio Hondo,73.48,136.08,61.23,124.74,322.05,Single-ply,SBD,F
Girls,75.07,6,Victoria Alejandre,La Feria,73.21,133.81,47.63,117.93,299.37,Single-ply,SBD,F
Girls,75.07,7,Yvette Solis,Donna,75.02,129.27,49.9,106.59,285.76,Single-ply,SBD,F
Girls,75.07,8,Stephanie Reyes,La Feria,72.3,113.4,54.43,106.59,274.42,Single-ply,SBD,F
Girls,75.07,9,Sydney Frausto,La Feria,73.48,111.13,45.36,111.13,267.62,Single-ply,SBD,F
Girls,75.07,10,Silvia Gonzalez,Port Isabel,68.4,90.72,58.97,113.4,263.08,Single-ply,SBD,F
Girls,75.07,11,Alisha Galvan,Santa Rosa,71.76,102.06,56.7,102.06,260.82,Single-ply,SBD,F
Girls,75.07,12,Natalia Marinov,Port Isabel,71.4,92.99,54.43,102.06,249.48,Single-ply,SBD,F
Girls,75.07,13,Corina Arizmendi,Brownsville Jubilee,74.03,90.72,36.29,108.86,235.87,Single-ply,SBD,F
Girls,75.07,DQ,Samarah Contreras,PSJA,74.93,106.59,,,,Single-ply,SBD,F
Girls,82.33,1,Natalie Monjaras,Weslaco,81.37,172.37,115.67,151.95,439.98,Single-ply,SBD,F
Girls,82.33,2,Carmen Lainez,Los Fresnos,80.01,156.49,88.45,131.54,376.48,Single-ply,SBD,F
Girls,82.33,3,Brittany Garza,Donna,81.1,156.49,74.84,145.15,376.48,Single-ply,SBD,F
Girls,82.33,4,Natalie Rivera,Brownsville Pace,78.38,163.29,79.38,127.01,369.68,Single-ply,SBD,F
Girls,82.33,5,Lorely Galvan,Brownsville Pace,80.83,149.69,63.5,154.22,367.41,Single-ply,SBD,F
Girls,82.33,6,Samantha Gonalez,Edinburg Idea College Prep,81.19,136.08,74.84,127.01,337.93,Single-ply,SBD,F
Girls,82.33,7,Emily Rodriguez,Los Fresnos,79.29,145.15,56.7,129.27,331.12,Single-ply,SBD,F
Girls,82.33,8,Sasha Garcia,Edinburg Quest College Prep,82.28,131.54,61.23,136.08,328.85,Single-ply,SBD,F
Girls,82.33,9,Brianna Lozano,Edinburg Quest College Prep,82.28,113.4,68.04,111.13,292.57,Single-ply,SBD,F
Girls,82.33,10,Angelina Lopez,La Feria,80.74,108.86,49.9,111.13,269.89,Single-ply,SBD,F
Girls,82.33,11,Jacky Ybarra,Edinburg Idea College Prep,79.83,102.06,38.56,108.86,249.48,Single-ply,SBD,F
Girls,82.33,12,Perla Mercado,Brownsville Porter,82.28,97.52,40.82,97.52,235.87,Single-ply,SBD,F
Girls,82.33,13,Melisa Lucio,La Feria,80.47,68.04,45.36,86.18,199.58,Single-ply,SBD,F
Girls,82.33,DQ,Glady Castillo,Brownsville Porter,82.1,,,,,Single-ply,SBD,F
Girls,82.33,DQ,Karen Villanueva,Rio Hondo,82.1,,,,,Single-ply,SBD,F
Girls,82.33,DQ,Jacquelyn Alvarado,McAllen IDEA College Prep,76.38,54.43,,,,Single-ply,SBD,F
Girls,90.04,1,Arianna Guerra,Donna,89.81,199.58,88.45,161.03,449.06,Single-ply,SBD,F
Girls,90.04,2,Alyssa Ramirez,La Feria,89.81,192.78,63.5,158.76,415.04,Single-ply,SBD,F
Girls,90.04,3,Amabella Gonzalez,Pharr Valley View,90.04,154.22,72.57,120.2,347,Single-ply,SBD,F
Girls,90.04,4,Mikaela Snyder,Port Isabel,89.81,138.35,49.9,142.88,331.12,Single-ply,SBD,F
Girls,90.04,5,Kimberly Guerra,PSJA,89.63,131.54,63.5,113.4,308.44,Single-ply,SBD,F
Girls,90.04,6,Leticia Flores,PSJA,83.19,124.74,56.7,111.13,292.57,Single-ply,SBD,F
Girls,90.04,7,Emily Gonzalez,Brownsville Pace,88.72,108.86,63.5,111.13,283.5,Single-ply,SBD,F
Girls,90.04,8,Yadira Zapata,Brownsville Pace,89.81,124.74,56.7,102.06,283.5,Single-ply,SBD,F
Girls,90.04,DQ,Gabriella Alejandre,La Feria,89.81,,,,,Single-ply,SBD,F
Girls,90.04,DQ,Mariela Hefferan,Pharr Valley View,90.04,,,,,Single-ply,SBD,F
Girls,90.04,DQ,Anyssa Barrientes,Rio Hondo,89.81,,,,,Single-ply,SBD,F
Girls,90.04,DQ,Maria Betancourt,Edinburg Quest College Prep,89.81,,,,,Single-ply,SBD,F
Girls,100.02,1,Jewlyanna Rivera,La Villa,99.79,158.76,92.99,108.86,360.61,Single-ply,SBD,F
Girls,100.02,2,Kassandra Moreno,Brownsville Porter,99.79,131.54,74.84,149.69,356.07,Single-ply,SBD,F
Girls,100.02,3,Analissa Longoria,Weslaco,100.02,158.76,61.23,136.08,356.07,Single-ply,SBD,F
Girls,100.02,4,Linda Rodriguez,Weslaco,90.63,151.95,63.5,131.54,347,Single-ply,SBD,F
Girls,100.02,5,Karina Medina,Brownsville Pace,97.7,133.81,61.23,108.86,303.91,Single-ply,SBD,F
Girls,100.02,DQ,Arlyssa Ybarra,Donna,99.79,,,,,Single-ply,SBD,F
Girls,100.02,DQ,Isabel Passero,McAllen IDEA College Prep,91.81,65.77,,,,Single-ply,SBD,F
Girls,117.71,1,Karina Martinez,Raymondville,106.59,247.21,124.74,183.7,555.65,Single-ply,SBD,F
Girls,117.71,2,Melanie Morales,Edinburg Idea College Prep,117.48,226.8,108.86,183.7,519.36,Single-ply,SBD,F
Girls,117.71,3,Brenda Lopez,Pharr Valley View,100.43,204.12,117.93,176.9,498.95,Single-ply,SBD,F
Girls,117.71,4,Roxanne Martinez,Donna,117.48,231.33,99.79,140.61,471.74,Single-ply,SBD,F
Girls,117.71,5,Katya Alfaro,Brownsville Porter,117.48,181.44,79.38,142.88,403.7,Single-ply,SBD,F
Girls,117.71,6,Desiree Martinez,Raymondville,105.51,161.03,72.57,124.74,358.34,Single-ply,SBD,F
Girls,117.71,DQ,Cynthia Rodriguez,Pharr Valley View,117.48,,,,,Single-ply,SBD,F
Girls,117.71,DQ,Amaya Guerra,Donna,117.48,,,,,Single-ply,SBD,F
Girls,117.71,DQ,Rosalinda Rodriguez,Donna,117.48,,,,,Single-ply,SBD,F
Girls,117.71,DQ,Ara Lucio,Brownsville Pace,105.23,,,,,Single-ply,SBD,F
Girls,117.71+,1,Denise Gonzalez,Weslaco,124.28,131.54,49.9,147.42,328.85,Single-ply,SBD,F
Girls,117.71+,2,Delilah Cordova,Weslaco,123.56,122.47,63.5,122.47,308.44,Single-ply,SBD,F
Girls,,NS,Desiree Moncevaiz,Raymondville,,,,,,Single-ply,SBD,F
