Division,WeightClassKg,Place,Name,Team,BodyweightKg,Best3SquatKg,Best3BenchKg,Best3DeadliftKg,TotalKg,Equipment,Event,Sex,BirthDate
Boys,51.71,1,Damian Reyna,Edinburg,50.35,124.74,83.91,154.22,362.87,Single-ply,SBD,M,
Boys,51.71,2,Justin Chapa,Edinburg,41.1,117.93,68.04,133.81,319.78,Single-ply,SBD,M,
Boys,51.71,3,Jesus Guerrero,Mission Sharyland,47.99,115.67,65.77,133.81,315.25,Single-ply,SBD,M,
Boys,51.71,4,Tyler Martinez,Edcouch-Elsa,50.62,113.4,65.77,131.54,310.71,Single-ply,SBD,M,
Boys,51.71,5,Thomas Sandoval,Los Fresnos,51.07,108.86,63.5,111.13,283.5,Single-ply,SBD,M,
Boys,51.71,6,Brigido Longoria,Los Fresnos,50.17,108.86,52.16,102.06,263.08,Single-ply,SBD,M,
Boys,55.79,1,Andy Oceguerra,Edcouch-Elsa,55.79,176.9,81.65,192.78,451.32,Single-ply,SBD,M,
Boys,55.79,2,Luis Garcia #9,Sharyland Pioneer,51.8,136.08,70.31,151.95,358.34,Single-ply,SBD,M,
Boys,55.79,3,Joshua Loo,Los Fresnos,55.43,129.27,56.7,138.35,324.32,Single-ply,SBD,M,
Boys,55.79,4,Enrique Pachecko,Brownsville Veterans Memorial,54.25,104.33,70.31,147.42,322.05,Single-ply,SBD,M,
Boys,55.79,5,Victor Vasquez,Sharyland Pioneer,51.89,111.13,61.23,136.08,308.44,Single-ply,SBD,M,
Boys,55.79,6,Diego Lozoya,Los Fresnos,53.43,113.4,61.23,131.54,306.17,Single-ply,SBD,M,
Boys,59.87,1,Patricio Chavez,Mission Sharyland,59.42,204.12,111.13,204.12,519.36,Single-ply,SBD,M,
Boys,59.87,2,San Juan Rodriguez,Edcouch-Elsa,59.87,195.04,111.13,204.12,510.29,Single-ply,SBD,M,
Boys,59.87,3,Adrian Garcia,Edinburg Economedes,58.15,204.12,122.47,181.44,508.02,Single-ply,SBD,M,
Boys,59.87,4,Daniel Pieda,Edcouch-Elsa,59.69,183.7,111.13,195.04,489.88,Single-ply,SBD,M,
Boys,59.87,5,Ramses Vasquez,Edinburg,59.78,131.54,97.52,154.22,383.29,Single-ply,SBD,M,
Boys,59.87,6,Daniel Agado,La Feria,59.87,138.35,70.31,172.37,381.02,Single-ply,SBD,M,
Boys,59.87,7,Joey Mirelez,Edinburg Quest College Prep,59.51,131.54,79.38,167.83,378.75,Single-ply,SBD,M,
Boys,59.87,8,Jesus Coronado,Sharyland Pioneer,59.69,117.93,79.38,145.15,342.46,Single-ply,SBD,M,
Boys,59.87,9,Andrew Knoblach,Sharyland Pioneer,59.87,108.86,61.23,113.4,283.5,Single-ply,SBD,M,
Boys,59.87,DQ,Marcelo Velasco,Mission Sharyland,59.87,,,,,Single-ply,SBD,M,
Boys,67.13,1,Jose Soto,Edinburg Economedes,63.14,247.21,149.69,213.19,610.08,Single-ply,SBD,M,
Boys,67.13,2,Elijah Wheeler,Edinburg Quest College Prep,66.5,224.53,129.27,215.46,569.26,Single-ply,SBD,M,
Boys,67.13,3,Jonathan Castillo,Edcouch-Elsa,67.13,215.46,117.93,210.92,544.31,Single-ply,SBD,M,
Boys,67.13,4,Robert Solis,Edinburg Economedes,66.5,165.56,97.52,210.92,474,Single-ply,SBD,M,
Boys,67.13,5,Frank Hernandez,Rio Hondo,66.68,170.1,129.27,172.37,471.74,Single-ply,SBD,M,
Boys,67.13,6,Bryan Ramirez,Edinburg North,67.13,167.83,102.06,201.85,471.74,Single-ply,SBD,M,
Boys,67.13,7,Sam Burton,Los Fresnos,63.96,183.7,88.45,183.7,455.86,Single-ply,SBD,M,
Boys,67.13,8,Alan Gonzalez,Mission Sharyland,65.95,183.7,102.06,165.56,451.32,Single-ply,SBD,M,
Boys,67.13,9,Arturo Sayas,Raymondville,66.59,174.63,92.99,179.17,446.79,Single-ply,SBD,M,
Boys,67.13,10,Brandon Lopez,Mission Sharyland,67.13,161.03,95.25,185.97,442.25,Single-ply,SBD,M,
Boys,67.13,11,Carlos Guzman,Edinburg Vela,66.95,161.03,115.67,161.03,437.72,Single-ply,SBD,M,
Boys,67.13,12,Pedro Garcia,Raymondville,64.77,161.03,92.99,172.37,426.38,Single-ply,SBD,M,
Boys,67.13,13,Noah Vento,La Feria,66.13,136.08,95.25,161.03,392.36,Single-ply,SBD,M,
Boys,67.13,14,Raul Rodriguez,Edinburg North,64.77,142.88,83.91,133.81,360.61,Single-ply,SBD,M,
Boys,67.13,15,Esai Pacheco,Edinburg Vela,64.59,115.67,74.84,120.2,310.71,Single-ply,SBD,M,
Boys,67.13,16,Nathaniel Valladares,Edinburg,63.32,108.86,61.23,138.35,308.44,Single-ply,SBD,M,
Boys,67.13,DQ,Joshua Salinas,Edinburg North,61.51,,,,,Single-ply,SBD,M,
Boys,74.84,1,Jacob Perez #7,Edcouch-Elsa,74.75,249.48,136.08,256.28,641.83,Single-ply,SBD,M,
Boys,74.84,2,Liam Longoria,Brownsville Veterans Memorial,74.3,217.72,142.88,233.6,594.21,Single-ply,SBD,M,
Boys,74.84,3,Aaron Lozano,Edinburg Quest College Prep,73.48,233.6,117.93,238.14,589.67,Single-ply,SBD,M,
Boys,74.84,4,Eduardo Mujica,Edinburg,72.48,204.12,151.95,219.99,576.06,Single-ply,SBD,M,
Boys,74.84,5,Alan Olvera,Edinburg Economedes,71.21,213.19,131.54,208.65,553.38,Single-ply,SBD,M,
Boys,74.84,6,Antonio Vasquez,Edinburg Quest College Prep,73.94,208.65,111.13,226.8,546.58,Single-ply,SBD,M,
Boys,74.84,7,Brandon Ramirez,Edinburg North,74.48,172.37,131.54,192.78,496.68,Single-ply,SBD,M,
Boys,74.84,8,Catorino Tijerina,Raymondville,74.3,183.7,127.01,183.7,494.42,Single-ply,SBD,M,
Boys,74.84,9,George Robles,Sharyland Pioneer,74.12,176.9,106.59,181.44,464.93,Single-ply,SBD,M,
Boys,74.84,10,Michael Thompson,Edinburg Vela,70.49,156.49,86.18,190.51,433.18,Single-ply,SBD,M,
Boys,74.84,11,Jose Garcia #10,Raymondville,74.84,165.56,92.99,165.56,424.11,Single-ply,SBD,M,
Boys,74.84,12,Ceasar Benavides,Sharyland Pioneer,72.12,165.56,88.45,165.56,419.57,Single-ply,SBD,M,
Boys,74.84,13,Juan Cano,Edinburg Vela,71.76,145.15,90.72,181.44,417.3,Single-ply,SBD,M,
Boys,74.84,14,Charlie Lomax,Sharyland Pioneer,72.94,122.47,88.45,142.88,353.8,Single-ply,SBD,M,
Boys,74.84,DQ,Tristan Lopez,Brownsville Veterans Memorial,74.84,,,,,Single-ply,SBD,M,
Boys,74.84,DQ,Alexis Amaya,Los Fresnos,72.76,,,,,Single-ply,SBD,M,
Boys,82.1,1,Gilbert Sanchez,Brownsville Veterans Memorial,77.11,260.82,147.42,226.8,635.03,Single-ply,SBD,M,
Boys,82.1,2,Jesse Contreras,Edcouch-Elsa,82.1,244.94,136.08,240.4,621.42,Single-ply,SBD,M,
Boys,82.1,3,Santino Pascual,Mission Sharyland,80.56,244.94,138.35,233.6,616.89,Single-ply,SBD,M,
Boys,82.1,4,Jesus Sepulveda,Edinburg Economedes,76.66,235.87,156.49,201.85,594.21,Single-ply,SBD,M,
Boys,82.1,5,Mauricio Sanchez,Mission Sharyland,81.28,213.19,145.15,229.06,587.4,Single-ply,SBD,M,
Boys,82.1,6,Ricardo Macias,La Feria,80.01,181.44,127.01,213.19,521.63,Single-ply,SBD,M,
Boys,82.1,7,Victor Carvajal,Mission Sharyland,79.92,188.24,111.13,199.58,498.95,Single-ply,SBD,M,
Boys,82.1,8,Josue Ceron,Los Fresnos,74.93,190.51,113.4,190.51,494.42,Single-ply,SBD,M,
Boys,82.1,9,Evan Sanchez,La Feria,80.56,188.24,92.99,188.24,469.47,Single-ply,SBD,M,
Boys,82.1,10,Humberto Serna,Sharyland Pioneer,74.93,151.95,106.59,197.31,455.86,Single-ply,SBD,M,
Boys,82.1,11,Jordy Cedillo Cedillo Martinez,Brownsville Veterans Memorial,81.83,204.12,115.67,,319.78,Single-ply,SB,M,
Boys,82.1,12,Humberto Barerra,Rio Hondo,81.92,170.1,127.01,,297.1,Single-ply,SB,M,
Boys,82.1,DQ,Gerry Ortiz,Brownsville Veterans Memorial,82.1,,,,,Single-ply,SBD,M,
Boys,82.1,DQ,Juan Torres,Raymondville,81.1,,,,,Single-ply,SBD,M,
Boys,89.81,1,Victor Guerrero,Edcouch-Elsa,89.63,226.8,136.08,229.06,591.94,Single-ply,SBD,M,
Boys,89.81,2,Martin Rabanales,Edinburg Quest College Prep,85.73,242.67,127.01,199.58,569.26,Single-ply,SBD,M,
Boys,89.81,3,Nicolas Lopez,Rio Hondo,88.09,217.72,133.81,213.19,564.72,Single-ply,SBD,M,
Boys,89.81,4,Irvin Castro,La Feria,89.18,224.53,140.61,197.31,562.45,Single-ply,SBD,M,
Boys,89.81,5,Alan Torres,Los Fresnos,89.36,219.99,133.81,208.65,562.45,Single-ply,SBD,M,
Boys,89.81,6,Reymundo Luevano,Edinburg North,89.81,188.24,156.49,206.38,551.11,Single-ply,SBD,M,
Boys,89.81,7,Erick Rangel,La Feria,88.63,215.46,120.2,213.19,548.85,Single-ply,SBD,M,
Boys,89.81,8,Juan Mendoza #2,Edinburg,89.81,215.46,142.88,185.97,544.31,Single-ply,SBD,M,
Boys,89.81,9,Carlos Olivo,Edinburg North,85.91,204.12,136.08,197.31,537.51,Single-ply,SBD,M,
Boys,89.81,10,Adrian Cantu,Raymondville,88.99,206.38,113.4,192.78,512.56,Single-ply,SBD,M,
Boys,89.81,11,Luis Cacaurin,Brownsville Veterans Memorial,84.55,197.31,108.86,197.31,503.49,Single-ply,SBD,M,
Boys,89.81,12,Josh Madrazo,Brownsville Veterans Memorial,87.27,181.44,127.01,195.04,503.49,Single-ply,SBD,M,
Boys,89.81,13,Justin Rosas,Brownsville Veterans Memorial,83.37,204.12,124.74,172.37,501.22,Single-ply,SBD,M,
Boys,89.81,14,Travis Menchaca,La Feria,85.46,185.97,106.59,208.65,501.22,Single-ply,SBD,M,
Boys,89.81,15,David Resio,Sharyland Pioneer,89.36,197.31,102.06,174.63,474,Single-ply,SBD,M,
Boys,89.81,16,Manny Flores,Rio Hondo,88.36,183.7,133.81,151.95,469.47,Single-ply,SBD,M,
Boys,89.81,17,Juan Villarreal,Sharyland Pioneer,88.63,172.37,108.86,188.24,469.47,Single-ply,SBD,M,
Boys,89.81,18,Jonathan Maldonado,Edinburg,84.28,181.44,127.01,136.08,444.52,Single-ply,SBD,M,
Boys,89.81,19,Justin Cappadona,Edinburg North,82.19,165.56,111.13,151.95,428.64,Single-ply,SBD,M,
Boys,89.81,DQ,Daniel Gonzalez,Mission Sharyland,89.81,,,,,Single-ply,SBD,M,
Boys,99.79,1,Justin Valdez,Edinburg Vela,98.43,242.67,142.88,242.67,628.23,Single-ply,SBD,M,
Boys,99.79,2,Justyn Esquivel,Edcouch-Elsa,99.06,240.4,158.76,226.8,625.96,Single-ply,SBD,M,
Boys,99.79,3,Oscar Cruz,Edinburg,94.8,222.26,131.54,229.06,582.87,Single-ply,SBD,M,
Boys,99.79,4,Jose Lugo,La Feria,98.16,226.8,136.08,204.12,566.99,Single-ply,SBD,M,
Boys,99.79,5,Rudy De Leon,La Feria,96.07,199.58,127.01,204.12,530.7,Single-ply,SBD,M,
Boys,99.79,6,Gael Garcia-Perez,Brownsville Veterans Memorial,89.9,183.7,124.74,188.24,496.68,Single-ply,SBD,M,
Boys,99.79,7,Isaiah Cepeda,Edinburg North,92.53,192.78,115.67,188.24,496.68,Single-ply,SBD,M,
Boys,99.79,8,Ethan Salazar,Los Fresnos,99.61,151.95,151.95,127.01,430.91,Single-ply,SBD,M,
Boys,99.79,DQ,Miguel Torres,Raymondville,99.79,,,,,Single-ply,SBD,M,
Boys,99.79,DQ,Nathan Castaneda,Rio Hondo,98.79,233.6,122.47,,,Single-ply,SBD,M,
Boys,99.79,DQ,Ethan Garza,Mission Sharyland,89.99,,,,,Single-ply,SBD,M,
Boys,109.77,1,Joseph Guerra,Edinburg Economedes,104.51,254.01,161.03,247.21,662.24,Single-ply,SBD,M,
Boys,109.77,2,Antonio Marroquin,La Feria,104.78,260.82,147.42,229.06,637.3,Single-ply,SBD,M,
Boys,109.77,3,Pablo Rodriguez,Edinburg North,103.24,244.94,161.03,222.26,628.23,Single-ply,SBD,M,
Boys,109.77,4,Jose Morales,Edcouch-Elsa,109.77,260.82,170.1,158.76,589.67,Single-ply,SBD,M,
Boys,109.77,5,Samuel Tagle,Rio Hondo,104.42,174.63,115.67,158.76,449.06,Single-ply,SBD,M,
Boys,124.74,1,Imanol Rodriguez,Edcouch-Elsa,123.65,340.19,215.46,251.74,807.39,Single-ply,SBD,M,
Boys,124.74,2,Orlando Camacho,Sharyland Pioneer,113.85,242.67,142.88,226.8,612.35,Single-ply,SBD,M,
Boys,124.74,3,Diego Ochoa,Mission Sharyland,113.94,258.55,138.35,213.19,610.08,Single-ply,SBD,M,
Boys,124.74,4,Scott Atkinson,Rio Hondo,120.75,233.6,124.74,247.21,605.55,Single-ply,SBD,M,
Boys,124.74,5,Guadalupe Vega,Edinburg,120.47,208.65,147.42,213.19,569.26,Single-ply,SBD,M,
Boys,124.74,6,Adrian Gonzalez,Rio Hondo,112.58,235.87,149.69,147.42,532.97,Single-ply,SBD,M,
Boys,124.74,7,Holloman Holloman,Brownsville Veterans Memorial,115.94,183.7,97.52,183.7,464.93,Single-ply,SBD,M,
Boys,124.74,8,Andrew Vega,Edinburg,112.85,147.42,63.5,149.69,360.61,Single-ply,SBD,M,
Boys,124.74+,1,Jaden Brooks,Raymondville,173.27,317.51,167.83,267.62,752.96,Single-ply,SBD,M,
Boys,124.74+,2,Jason Vasquez,Edcouch-Elsa,130.91,285.76,147.42,251.74,684.92,Single-ply,SBD,M,
Boys,124.74+,3,Genaro Paez,Edinburg,151.95,276.69,161.03,233.6,671.32,Single-ply,SBD,M,
Boys,124.74+,4,Triston Rosales,La Feria,131.18,294.84,151.95,213.19,659.98,Single-ply,SBD,M,
Boys,124.74+,5,Juan Barerra,Edcouch-Elsa,137.89,260.82,136.08,190.51,587.4,Single-ply,SBD,M,
Boys,124.74+,6,Trebor Acuna,Edinburg North,131.54,235.87,158.76,188.24,582.87,Single-ply,SBD,M,
Boys,124.74+,7,Ernesto Sustaita,Edinburg North,133.63,231.33,127.01,208.65,566.99,Single-ply,SBD,M,
Boys,124.74+,8,Marco Gamez,Edinburg Vela,130.91,210.92,129.27,192.78,532.97,Single-ply,SBD,M,
Boys,124.74+,9,Nick Gomez,Raymondville,133.36,206.38,113.4,195.04,514.83,Single-ply,SBD,M,
Boys,124.74+,10,Mark Reyes,Raymondville,126.37,176.9,102.06,161.03,439.98,Single-ply,SBD,M,
Boys,124.74+,DQ,Omar Rodriguez,Rio Hondo,134.44,,,,,Single-ply,SBD,M,
Boys,,NS,Brandon Sandoval,Rio Hondo,,,,,,Single-ply,SBD,M,
