Sex,WeightClassKg,Name,Country,Bench1Kg,Bench2Kg,Bench3Kg,Bench4Kg,Best3BenchKg,TotalKg,BodyweightKg,BirthYear,BirthDate,Event,Division,Equipment,Place
F,55,Lucy Ogechukwu Ejike,Nigeria,110,120,-125,125,120,120,42.95,,1977-10-16,B,Open,Raw,1
F,55,Iyabo Ismaila,Nigeria,110,115,-125,,115,115,51.05,,1974-12-02,B,Open,Raw,2
F,55,Patience Igbiti,Nigeria,110,115,-120,,115,115,54.75,,1977-02-02,B,Open,Raw,3
F,55,Abir Nail,Egypt,105,-110,110,,110,110,48.4,,1972-08-10,B,Open,Raw,4
F,55,Ijeoma John,Nigeria,90,95,-103,,95,95,38.95,,1984-09-16,B,Open,Raw,5
F,55,Gihan Baioumy,Egypt,85,90,95,,95,95,42,,1974-10-29,B,Open,Raw,6
F,55,Annah Mooketsi,South Africa,-80,85,-90,,85,85,50.4,,1986-05-24,B,Open,Raw,7
F,55,Kadidjatou Amadou,Niger,35,45,-50,,45,45,45.35,,1976-09-11,B,Open,Raw,8
F,55,Christine Tapsoba,Burkina Faso,-40,-40,40,,40,40,51.5,,1975-09-03,B,Open,Raw,9
F,55,Kadidia Niekiema,Burkina Faso,-40,40,-50,,40,40,54.15,,1980-01-01,B,Open,Raw,10
F,55,Hamidou Fati,Niger,30,-40,-40,,30,30,46.2,1983,,B,Open,Raw,11
F,67.5,Heba Hassan,Egypt,135,140,-145,142.5,140,140,67.5,,1981-01-01,B,Open,Raw,1
F,67.5,Victoria Nneji,Nigeria,130,135,-142.5,,135,135,64.3,,1972-06-05,B,Open,Raw,2
F,67.5,Chituri Nwaozuzu,Nigeria,90,105,-107.5,,105,105,59.1,,1980-07-28,B,Open,Raw,3
F,67.5,Amany Aly,Egypt,100,105,-107.5,,105,105,59.35,,1976-03-02,B,Open,Raw,4
F,67.5,Chantell Stierman,South Africa,82.5,87.5,-90,,87.5,87.5,57.15,,1985-04-24,B,Open,Raw,5
F,67.5,Nacera Belarbi,Algeria,-80,80,85,,85,85,64.35,,1966-11-25,B,Open,Raw,6
F,67.5,Blandine Sahenou,Benin,45,50,-55,,50,50,63.6,,1975-05-14,B,Open,Raw,7
F,67.5,Clarisse Niekiema,Burkina Faso,35,-40,-40,,35,35,58.1,,1983-08-07,B,Open,Raw,8
F,67.5+,Grace Ebere Anozie,Nigeria,130,135,137.5,,137.5,137.5,99.45,,1977-07-16,B,Open,Raw,1
F,67.5+,Nail Aly,Egypt,127.5,135,-137.5,,135,135,87.85,,1974-07-27,B,Open,Raw,2
F,67.5+,Happiness Opara,Nigeria,120,130,-132.5,,130,130,81.4,,1977-05-19,B,Open,Raw,3
F,67.5+,Kikelomo Ogunbamowo,Nigeria,120,-125,-125,,120,120,72.3,,1970-07-08,B,Open,Raw,4
F,67.5+,Sahar Mostafa,Libya,65,-72.5,72.5,,72.5,72.5,78.1,,1981-12-01,B,Open,Raw,5
F,67.5+,Ghazala Ali,Libya,60,70,-72.5,,70,70,90.1,,1973-06-08,B,Open,Raw,6
M,48,Ruel Ishaku,Nigeria,150,160,162.5,,162.5,162.5,45.85,,1967-01-11,B,Open,Raw,1
M,48,Mondy Abd El Azim,Egypt,155,160,-162.5,,160,160,47.35,,1973-05-01,B,Open,Raw,2
M,48,Alidou Diamoutene,Ivory Coast,115,-120,120,,120,120,45.65,,1977-09-20,B,Open,Raw,3
M,48,Tilahun Jemaneh,Ethiopia,-80,80,85,,85,85,47.05,,1983-07-05,B,Open,Raw,4
M,48,Jacques Ouedraogo,Burkina Faso,-60,80,-90,,80,80,45.2,,1978-01-26,B,Open,Raw,5
M,48,Aliou Bawa,Togo,60,-80,-85,,60,60,42.25,,1983-12-31,B,Open,Raw,6
M,48,Souley Maman,Niger,-40,40,-55,,40,40,41.95,,1972-04-14,B,Open,Raw,7
M,48,Ferdinand Adechi,Benin,-100,-100,-100,,,,42.25,,1978-02-09,B,Open,Raw,DQ
M,48,Guy Gaetan Ntoutoume,Gabon,-60,-60,-60,,,,43.9,,1975-08-06,B,Open,Raw,DQ
M,52,Osama El Serngawy,Egypt,165,172.5,-179,,172.5,172.5,49.75,,1969-01-01,B,Open,Raw,1
M,52,Anthony Imbomoh,Nigeria,160,-167.5,-167.5,,160,160,49.95,,1980-08-04,B,Open,Raw,2
M,52,Alexandre Ilboudou,Burkina Faso,-65,75,-80,,75,75,51.8,,1981-06-27,B,Open,Raw,3
M,52,Aboubakari Moumouni,Benin,-60,-60,70,,70,70,48.95,1975,,B,Open,Raw,4
M,52,Moustapha Zakari,Togo,-75,-90,-90,,,,49.4,,1983-12-31,B,Open,Raw,DQ
M,56,Konan Koko,Ivory Coast,-115,-115,-115,,,,54.2,,1977-04-26,B,Open,Raw,DQ
M,56,Goumaa Ahmed Ahmed,Egypt,-175,-175,-175,,,,55.55,,1963-03-10,B,Open,Raw,DQ
M,56,Samson Okutto,Kenya,125,-130,130,,130,130,54.3,,1979-07-31,B,Open,Raw,2
M,56,Oumarou Abdou,Niger,55,-60,-65,,55,55,53.45,,1976-10-06,B,Open,Raw,5
M,56,Sadiq Animashaw,Nigeria,-172.5,-172.5,172.5,,172.5,172.5,54.95,,1976-01-08,B,Open,Raw,1
M,56,Ricardo Fitzpatrick,South Africa,122.5,-127.5,-127.5,,122.5,122.5,54.7,,1980-11-30,B,Open,Raw,3
M,56,Thibaut Bomaya,South Africa,-100,100,-110,,100,100,52.1,,1976-07-08,B,Open,Raw,4
M,60,Alexandre Yitemben,Cameroon,70,-95,-95,,70,70,56.7,,1967-04-27,B,Open,Raw,4
M,60,Shaban Yehia Ibrahim,Egypt,185,-192.5,192.5,-203,192.5,192.5,58.5,,1975-09-14,B,Open,Raw,1
M,60,Abdelsalam Gharsa,Libya,-145,145,150,,150,150,57.05,,1967-09-01,B,Open,Raw,2
M,60,Idrissa Boureima,Niger,60,-70,70,,70,70,56.25,,1979-08-10,B,Open,Raw,3
M,60,Smith Dickson,Nigeria,-170,-175,-175,,,,58.75,,1981-01-05,B,Open,Raw,DQ
M,67.5,Lassina Traore,Burkina Faso,-65,-65,65,,65,65,67.3,,1976-11-11,B,Open,Raw,4
M,67.5,Metwaly Ibrahim Mathna,Egypt,200,207.5,212.5,,212.5,212.5,66.95,,1974-11-30,B,Open,Raw,1
M,67.5,Zakari Amadou,Niger,-100,-100,-100,,,,62.9,,1971-11-09,B,Open,Raw,DQ
M,67.5,David Ebinola,Nigeria,190,200,-210,,200,200,66.2,,1972-02-04,B,Open,Raw,2
M,67.5,Evgeni Popov,South Africa,-120,-120,-127.5,,,,64.15,,1961-11-06,B,Open,Raw,DQ
M,67.5,Abdou Wali Sambale,Togo,120,-135,135,,135,135,63.45,,1978-10-08,B,Open,Raw,3
M,75,Justin Oguinth,Benin,100,-110,120,,120,120,74.2,,1972-08-08,B,Open,Raw,4
M,75,Bienvenu Adenle,Benin,-75,-75,-75,,,,73.5,,1962-07-06,B,Open,Raw,DQ
M,75,El Sayed Abd El Aal,Egypt,205,212.5,215,,215,215,73.9,,1974-04-06,B,Open,Raw,1
M,75,Facourou Sisseko,Mali,130,-140,-140,,130,130,73.95,,1962-11-23,B,Open,Raw,3
M,75,Okechukwu Alfa,Nigeria,190,207.5,-212.5,,207.5,207.5,74.9,,1986-12-26,B,Open,Raw,2
M,75,Waly Faye Dia,Senegal,-100,-100,100,,100,100,70,,1981-03-14,B,Open,Raw,5
M,75,Teko Biose Ayi,Togo,60,75,-85,,75,75,70.2,,1972-11-29,B,Open,Raw,6
M,75,Kossi S. Dahoundji,Togo,60,-85,-95,,60,60,68.1,,1982-12-31,B,Open,Raw,7
M,,Farag Salah Abdel Monem,Egypt,210,220,-227.5,,220,220,88,,1973-09-22,B,Open,Raw,1
M,,Obioma Daleth Aligekwe,Nigeria,210,220,-227.5,,220,220,88.9,,1978-12-17,B,Open,Raw,2
M,,Mostafa Hamed,Egypt,200,210,-220,,210,210,79.6,,1967-12-06,B,Open,Raw,3
M,,Coetzee Wium,South Africa,185,192.5,-197.5,,192.5,192.5,89.2,,1978-09-18,B,Open,Raw,4
M,,Uchechukwu Achi,Nigeria,170,180,-190,,180,180,78.8,,1980-07-07,B,Open,Raw,6
M,,Hamza Bouali,Algeria,-180,-180,180,,180,180,86.4,,1973-02-27,B,Open,Raw,7
M,,Ali Alzoumi,Niger,-70,70,80,,80,80,81.4,,1976-10-10,B,Open,Raw,8
M,,Isaka Kabore,Burkina Faso,,,,,,,,,1975-01-01,B,Open,Raw,DQ
M,100,Solomon Amarakuo,Nigeria,220,235,-240,,235,235,97,,1976-08-18,B,Open,Raw,1
M,100+,Anthony Dike,Nigeria,180,190,-205,,190,190,102.3,,1979-04-22,B,Open,Raw,2
M,100+,Abdelrahim Busanan,Libya,230,-240,240,248,240,240,166,,1968-02-16,B,Open,Raw,1
M,100+,Nick Flemming,South Africa,140,-147.5,-147.5,,140,140,114.5,,1959-11-15,B,Open,Raw,3
