Division,WeightClassKg,Place,Name,Team,BodyweightKg,Best3SquatKg,Best3BenchKg,Best3DeadliftKg,TotalKg,Equipment,Event,Sex
Boys,55.79,1,Keilen Shelton,Carthage,51.8,122.47,74.84,124.74,322.05,Single-ply,SBD,M
Boys,51.71,2,Joseph Hernandez,New Summerfield,51.71,43.09,45.36,68.04,156.49,Single-ply,SBD,M
Boys,55.79,1,Hunter Johnson #4,Waskom,53.07,102.06,68.04,136.08,306.17,Single-ply,SBD,M
Boys,55.79,2,Nate Burden,Atlanta,55.47,115.67,56.7,133.81,306.17,Single-ply,SBD,M
Boys,55.79,3,Harrison Wilson,Carthage,54.52,97.52,61.23,115.67,274.42,Single-ply,SBD,M
Boys,59.87,1,Juston Clough,Carthage,56.84,151.95,77.11,176.9,405.97,Single-ply,SBD,M
Boys,67.13,2,Hunter Roberts,Atlanta,60.01,124.74,83.91,158.76,367.41,Single-ply,SBD,M
Boys,59.87,3,Luke Anthony,Atlanta,59.56,99.79,58.97,122.47,281.23,Single-ply,SBD,M
Boys,67.13,4,Cameron Jefley,Atlanta,59.92,95.25,68.04,117.93,281.23,Single-ply,SBD,M
Boys,59.87,5,Cesar Montez,New Summerfield,59.87,72.57,52.16,90.72,215.46,Single-ply,SBD,M
Boys,59.87,6,Israel Cruz,New Summerfield,59.87,70.31,45.36,81.65,197.31,Single-ply,SBD,M
Boys,59.87,7,Andy Espino,New Summerfield,59.87,,36.29,63.5,99.79,Single-ply,BD,M
Boys,67.13,1,Gage Allen,Hallsville,66.68,185.97,108.86,174.63,469.47,Single-ply,SBD,M
Boys,74.84,2,Funzell Coleman,Atlanta,67.18,163.29,95.25,199.58,458.13,Single-ply,SBD,M
Boys,67.13,3,Jason Jinks,Waskom,62.6,151.95,83.91,161.03,396.89,Single-ply,SBD,M
Boys,67.13,4,Jamall Davis,Hallsville,66.32,104.33,77.11,142.88,324.32,Single-ply,SBD,M
Boys,67.13,DQ,Auryan Parks,Hallsville,62.14,,,,,Single-ply,SBD,M
Boys,82.1,1,Z Barfoot,Atlanta,74.89,158.76,108.86,158.76,426.38,Single-ply,SBD,M
Boys,74.84,2,Temon Wafer,Atlanta,70.31,156.49,79.38,183.7,419.57,Single-ply,SBD,M
Boys,74.84,3,Tyrell Phillips,Atlanta,70.85,117.93,92.99,158.76,369.68,Single-ply,SBD,M
Boys,74.84,4,Caleb Archer,Hallsville,69.94,136.08,88.45,140.61,365.14,Single-ply,SBD,M
Boys,74.84,5,Melvin Jett,Atlanta,74.39,124.74,92.99,133.81,351.53,Single-ply,SBD,M
Boys,82.1,1,Alvin Battle,Atlanta,78.24,254.01,149.69,249.48,653.17,Single-ply,SBD,M
Boys,82.1,2,AJ Rose,Hallsville,82.1,249.48,190.51,213.19,653.17,Single-ply,SBD,M
Boys,82.1,3,Blair Fernandez,Hallsville,79.83,204.12,136.08,190.51,530.7,Single-ply,SBD,M
Boys,82.1,4,Shelton Haskins,Atlanta,78.15,181.44,102.06,192.78,476.27,Single-ply,SBD,M
Boys,82.1,5,Skyler McClelland,Hallsville,78.93,181.44,97.52,179.17,458.13,Single-ply,SBD,M
Boys,82.1,6,Roger McCuller,Hallsville,78.93,163.29,97.52,192.78,453.59,Single-ply,SBD,M
Boys,82.1,7,Tavorin Pellum,Carthage,81.69,147.42,106.59,163.29,417.3,Single-ply,SBD,M
Boys,82.1,8,Cheston Malone,Carthage,77.29,147.42,97.52,170.1,415.04,Single-ply,SBD,M
Boys,82.1,9,Seth Lott,Hallsville,82.1,136.08,95.25,149.69,381.02,Single-ply,SBD,M
Boys,82.1,10,Sheldon Powell,Atlanta,81.33,108.86,74.84,140.61,324.32,Single-ply,SBD,M
Boys,82.1,11,Tye Henderson,Atlanta,77.66,97.52,70.31,124.74,292.57,Single-ply,SBD,M
Boys,89.81,1,Nick Cooper,Atlanta,83.28,204.12,124.74,204.12,532.97,Single-ply,SBD,M
Boys,89.81,2,Ethan Maulden,Atlanta,85.64,172.37,88.45,172.37,433.18,Single-ply,SBD,M
Boys,89.81,DQ,Jackson Maxey,Hallsville,83.91,,,,,Single-ply,SBD,M
Boys,99.79,1,Nick Bishop,Atlanta,92.44,183.7,113.4,188.24,485.34,Single-ply,SBD,M
Boys,99.79,2,Tristan Allen,Atlanta,91.9,165.56,106.59,181.44,453.59,Single-ply,SBD,M
Boys,99.79,3,Chase Cushenberry,Hallsville,99.79,158.76,102.06,170.1,430.91,Single-ply,SBD,M
Boys,99.79,4,Blaise Hooten,Atlanta,92.35,122.47,63.5,142.88,328.85,Single-ply,SBD,M
Boys,99.79,5,Julian Suarez,New Summerfield,99.79,63.5,65.77,68.04,197.31,Single-ply,SBD,M
Boys,99.79,6,Cesar Rangel,New Summerfield,99.79,63.5,61.23,68.04,192.78,Single-ply,SBD,M
Boys,99.79,DQ,Luis Mendoza,New Summerfield,99.79,,,,,Single-ply,SBD,M
Boys,109.77,1,Cole Davis,Atlanta,108.59,256.28,154.22,263.08,673.58,Single-ply,SBD,M
Boys,109.77,2,Keyunta Kinney,Atlanta,103.92,199.58,133.81,226.8,560.19,Single-ply,SBD,M
Boys,109.77,3,Kj Mohl,Hallsville,106.59,206.38,136.08,201.85,544.31,Single-ply,SBD,M
Boys,124.74,4,Mitch Hardaway,Atlanta,109.81,192.78,88.45,163.29,444.52,Single-ply,SBD,M
Boys,109.77,5,Randy Jones,Hallsville,107.95,142.88,90.72,161.03,394.63,Single-ply,SBD,M
Boys,109.77,6,Hunter Rowe,Hallsville,109.32,117.93,83.91,147.42,349.27,Single-ply,SBD,M
Boys,109.77,7,Dylan Russell,Hallsville,102.06,117.93,74.84,127.01,319.78,Single-ply,SBD,M
Boys,124.74,1,Brandon Carlson,Carthage,112.58,199.58,108.86,206.38,514.83,Single-ply,SBD,M
Boys,124.74,2,Cagan Baldree,Carthage,112.04,192.78,117.93,192.78,503.49,Single-ply,SBD,M
Boys,124.74,3,Tanner Duke,Atlanta,121.56,192.78,108.86,195.04,496.68,Single-ply,SBD,M
Boys,124.74,4,Jacolby Hawkins,Carthage,121.02,158.76,129.27,163.29,451.32,Single-ply,SBD,M
Boys,124.74,5,Dusty Williams,Atlanta,113.04,122.47,95.25,131.54,349.27,Single-ply,SBD,M
Boys,124.74,6,Antonio Ortiz,Hallsville,113.4,113.4,83.91,142.88,340.19,Single-ply,SBD,M
Boys,124.74+,1,Kendrick Henderson,Carthage,133.36,204.12,136.08,199.58,539.77,Single-ply,SBD,M
Boys,124.74+,2,Jack Smith #3,Waskom,136.53,170.1,102.06,170.1,442.25,Single-ply,SBD,M
