Place,Name,CyrillicName,Country,BodyweightKg,Squat1Kg,Squat2Kg,Squat3Kg,Squat4Kg,Bench1Kg,Bench2Kg,Bench3Kg,Bench4Kg,Deadlift1Kg,Deadlift2Kg,Deadlift3Kg,Deadlift4Kg,TotalKg,WeightClassKg,Division,Sex,Event,Equipment,Best3SquatKg,Best3BenchKg,Best3DeadliftKg,BirthYear
1,Vladislav Volosyuk,Владислав Волосюк,Ukraine,71,100,,,,100,110,115,,100,,,,315,75,Pro Teen 16-17,M,SBD,Wraps,100,115,100,1998
1,Anton Voykov,Антон Войков,Ukraine,73,190,200,205,,112.5,120,-125,,210,222.5,235,,560,75,Pro Teen 18-19,M,SBD,Wraps,205,120,235,1996
1,Valentin Smirnov,Валентин Смірнов,Ukraine,75.3,155,165,-175,,70,77.5,-85,,150,160,165,,407.5,82.5,Pro Teen 18-19,M,SBD,Wraps,165,77.5,165,1995
1,Oleg Derlyuk,Олег Дерлюк,Ukraine,77.1,215,225,235,,110,-120,-120,,215,232.5,242.5,250,587.5,82.5,Pro Juniors 20-23,M,SBD,Wraps,235,110,242.5,1992
2,Evgen Litvinenko,Євген Литвиненко,Ukraine,81,185,195,205,,130,-140,140,,210,230,-242.5,,575,82.5,Pro Juniors 20-23,M,SBD,Wraps,205,140,230,1992
3,Sergiy Kirichuk,Сергій Киричук,Ukraine,81.7,180,-190,-190,,132.5,-140,-140,,205,212.5,217.5,,530,82.5,Pro Juniors 20-23,M,SBD,Wraps,180,132.5,217.5,1991
4,Roman Pavlenko,Роман Павленко,Ukraine,76.6,170,-180,-185,,-100,100,,,195,205,215,,485,82.5,Pro Juniors 20-23,M,SBD,Wraps,170,100,215,1994
5,Denis Lukyanov,Денис Лукьянов,Ukraine,78.5,-150,-150,150,,85,92.5,-100,,165,-180,-180,,407.5,82.5,Pro Juniors 20-23,M,SBD,Wraps,150,92.5,165,1991
1,Roman Moroz,Роман Мороз,Ukraine,85.8,175,190,200,,112.5,117.5,120,,195,205,210,,530,90,Pro Juniors 20-23,M,SBD,Wraps,200,120,210,1994
1,Sergiy Gaydrikh,Сергій Гайдрих,Ukraine,92.1,-242.5,250,260,,157.5,-162.5,,,250,257.5,-262.5,,675,100,Pro Juniors 20-23,M,SBD,Wraps,260,157.5,257.5,1993
1,Mikhaylo Gerula,Михайло Герула,Ukraine,100.1,200,-215,220,,120,130,-140,,200,215,230,,580,110,Pro Juniors 20-23,M,SBD,Wraps,220,130,230,1993
1,Dmitro Kondratenko,Дмитро Кондратенко,Ukraine,65,160,170,180,,102.5,110,115,,170,180,190,,485,67.5,Pro Open,M,SBD,Wraps,180,115,190,1986
1,Ivan Kapelyukh,Іван Капелюх,Ukraine,72.2,160,170,175,,125,130,-135,,210,220,-230,,525,75,Pro Open,M,SBD,Wraps,175,130,220,1985
2,Maksim Tokmakov,Максим Токмаков,Ukraine,69.5,-160,-160,160,,95,105,-110,,175,195,-200,,460,75,Pro Open,M,SBD,Wraps,160,105,195,1985
3,Dmitro Znakhur,Дмитро Знахур,Ukraine,69.1,-120,120,125,,70,75,-80,,155,-170,-170,,355,75,Pro Open,M,SBD,Wraps,125,75,155,1981
1,Eduard Lisovetskiy,Едуард Лісовецький,Ukraine,78.8,240,255,260,,125,130,135,,230,240,-250,,635,82.5,Pro Open,M,SBD,Wraps,260,135,240,1988
2,Andriy Vashchuk,Андрій Ващук,Ukraine,80.7,190,-200,200,,140,-150,-150,,202.5,215,220,,560,82.5,Pro Open,M,SBD,Wraps,200,140,220,1990
3,Nazariy Perkhulin,Назарій Перхулін,Ukraine,80.6,180,190,-202.5,,140,-145,-145,,195,-205,205,,535,82.5,Pro Open,M,SBD,Wraps,190,140,205,1988
4,Sergiy Kirichuk,Сергій Киричук,Ukraine,81.7,180,-190,-190,,132.5,-140,-140,,205,212.5,217.5,,530,82.5,Pro Open,M,SBD,Wraps,180,132.5,217.5,1991
5,Boris Kovalenko,Борис Коваленко,Ukraine,82.2,-190,190,195,,-110,110,-115,,190,197.5,202.5,,507.5,82.5,Pro Open,M,SBD,Wraps,195,110,202.5,1983
6,Andriy Sokolov,Андрій Соколов,Ukraine,77.5,170,180,-190,,-110,-110,110,,185,190,200,,490,82.5,Pro Open,M,SBD,Wraps,180,110,200,1987
7,Denis Lukyanov,Денис Лукьянов,Ukraine,78.5,-150,-150,150,,85,92.5,-100,,165,-180,-180,,407.5,82.5,Pro Open,M,SBD,Wraps,150,92.5,165,1991
1,Oleksandr Lisovskiy #1,Олександр Лісовський,Ukraine,84.9,200,212.5,220,,147.5,-155,-155,,225,241,252.5,-263,620,90,Pro Open,M,SBD,Wraps,220,147.5,252.5,1990
2,Maryan Deyneka,Мар'Ян Дейнека,Ukraine,87.7,180,190,205,,-140,-140,140,,220,230,242.5,,587.5,90,Pro Open,M,SBD,Wraps,205,140,242.5,1991
1,Oleksandr Dmitriev,Олександр Дмитрієв,Ukraine,97.8,205,220,227.5,,140,150,155,,230,240,-250,,622.5,100,Pro Open,M,SBD,Wraps,227.5,155,240,1987
2,Anton Mazur,Антон Мазур,Ukraine,97.8,180,-195,205,,120,130,135,,190,210,220,,560,100,Pro Open,M,SBD,Wraps,205,135,220,1987
1,Pavlo Mishchuk,Павло Міщук,Ukraine,103.5,200,-215,-215,,160,170,-177.5,,225,242.5,252.5,,622.5,110,Pro Open,M,SBD,Wraps,200,170,252.5,1988
2,Vitaliy Kashcheev,Віталій Кащеєв,Ukraine,105.5,160,170,180,,135,-140,140,,210,230,,,550,110,Pro Open,M,SBD,Wraps,180,140,230,1980
1,Oleksandr Foshchanko,Олександр Фощанко,Ukraine,111,165,175,-185,,-107.5,107.5,115,,175,190,205,,495,125,Pro Open,M,SBD,Wraps,175,115,205,1989
1,Volodimir Andreev,Володимир Андреєв,Ukraine,96,160,,,,110,120,,,170,,,,450,100,Pro Masters 40-44,M,SBD,Wraps,160,120,170,1973
1,Boris Khoroshiy,Борис Хороший,Ukraine,96.6,160,170,180,,-105,105,110,,165,175,-190,,465,100,Pro Masters 45-49,M,SBD,Wraps,180,110,175,1966
1,Igor Zubarev,Ігор Зубарєв,Ukraine,71.2,50,-60,60,,25,30,-35,,70,80,90,,180,75,Pro Masters 70-74,M,SBD,Wraps,60,30,90,1941
1,Dmitro Kondratenko,Дмитро Кондратенко,Ukraine,65,160,170,180,,102.5,110,115,,170,180,190,,485,67.5,Pro Military/Fire/Police,M,SBD,Wraps,180,115,190,1986
1,Oleksandr Dmitriev,Олександр Дмитрієв,Ukraine,97.8,205,220,227.5,,140,150,155,,230,240,-250,,622.5,100,Pro Military/Fire/Police,M,SBD,Wraps,227.5,155,240,1987
1,Mariya Soltisyak,Марія Солтисяк,Ukraine,55.2,80,85,-90,,-30,-35,40,,80,95,,,220,56,Pro Teen 16-17,F,SBD,Wraps,85,40,95,1998
1,Irina Galabir,Ірина Галабір,Ukraine,51.6,-82.5,82.5,-90,,42.5,47.5,-50,,92.5,-97.5,100,,230,52,Pro Teen 18-19,F,SBD,Wraps,82.5,47.5,100,1995
1,Yana Khlanta,Яна Хланта,Ukraine,45.1,95,100,-105,,40,-45,-45,,105,110,-120,,250,48,Pro Open,F,SBD,Wraps,100,40,110,1987
2,Yuliya Borshchevska,Юлія Борщевська,Ukraine,46.3,-82.5,-82.5,87.5,,35,37.5,40,,72.5,77.5,80,,207.5,48,Pro Open,F,SBD,Wraps,87.5,40,80,1985
3,Nataliya Parnak,Наталія Парнак,Ukraine,44.1,-65,-65,65,,35,40,-42.5,,70,75,80,,185,48,Pro Open,F,SBD,Wraps,65,40,80,1985
1,Marina Matvienko,Марина Матвієнко,Ukraine,49.2,90,95,100,,45,50,55,,120,130,137.5,,292.5,52,Pro Open,F,SBD,Wraps,100,55,137.5,1989
2,Darina Prisyazhna,Дарина Присяжна,Ukraine,48.4,85,-90,-92.5,,50,-52.5,52.5,,85,95,97.5,-100,235,52,Pro Open,F,SBD,Wraps,85,52.5,97.5,1989
3,Karina Utenkova,Карина Утенкова,Ukraine,51,80,85,-92.5,,40,45,-47.5,,80,87.5,92.5,,222.5,52,Pro Open,F,SBD,Wraps,85,45,92.5,1988
DQ,Liana Kapitula,Ліана Капітула,Ukraine,54.9,-65,-65,-75,,-40,,,,-65,,,,,56,Pro Open,F,SBD,Wraps,,,,1988
1,Nataliya Mavdrik,Наталія Мавдрик,Ukraine,61.2,92.5,100,105,,70,75,-77.5,,130,137.5,142.5,,322.5,67.5,Pro Open,F,SBD,Wraps,105,75,142.5,1984
1,Tetyana Khomyak,Тетяна Хомяк,Ukraine,73.2,90,95,105,,62.5,67.5,-72.5,,100,112.5,-115,,285,75,Pro Open,F,SBD,Wraps,105,67.5,112.5,1979
1,Yuliya Maystruk,Юлія Майструк,Ukraine,91.7,75,85,-95,,47.5,52.5,-57.5,,105,115,125,,262.5,100,Pro Open,F,SBD,Wraps,85,52.5,125,1981
1,Ulyan Savchuk,Ульян Савчук,Ukraine,67.2,100,110,122.5,,80,-90,-90,,120,130,-140,,332.5,67.5,Pro Teen 13-15,M,SBD,Wraps,122.5,80,130,1999
1,Yaroslav Galibarenko,Ярослав Галібаренко,Ukraine,62.3,-160,160,170,,100,107.5,-115,,180,-190,-190,,457.5,67.5,Pro Teen 18-19,M,SBD,Wraps,170,107.5,180,1996
1,Maksim Boyko,Максим Бойко,Ukraine,82.4,-230,230,250,,140,145,-150,,200,-210,210,,605,82.5,Pro Teen 18-19,M,SBD,Wraps,250,145,210,1996
2,Artem Gayday,Артем Гайдай,Ukraine,77.1,200,-210,-215,,135,-140,140,,200,210,-220,,550,82.5,Pro Teen 18-19,M,SBD,Wraps,200,140,210,1996
1,Bogdan Lyubchenko,Богдан Любченко,Ukraine,85,140,150,-160,,80,-85,85,,155,170,-180,,405,90,Pro Teen 18-19,M,SBD,Wraps,150,85,170,1996
1,Yuriy Tsarik,Юрій Царик,Ukraine,61.1,-145,145,-152.5,,95,-100,-100,,140,155,-165,,395,67.5,Pro Juniors 20-23,M,SBD,Wraps,145,95,155,1992
1,Ivan Timchak,Іван Тимчак,Ukraine,81.9,205,-215,215,,127.5,-135,-135,,220,230,235,,577.5,82.5,Pro Juniors 20-23,M,SBD,Wraps,215,127.5,235,1993
1,Yaroslav Apalkov,Ярослав Апальков,Ukraine,159.4,340,360,370,,200,220,,,300,330,350,,940,155+,Pro Juniors 20-23,M,SBD,Wraps,370,220,350,1993
1,Oleksiy Borovskiy,Олексій Боровський,Ukraine,76.1,200,210,-220,,120,125,130,,195,205,215,,555,82.5,Pro Open,M,SBD,Wraps,210,130,215,1986
1,Oleksii Melnyk,Олексій Мельник,Ukraine,85.8,300,-320,-320,,170,180,187.5,-190.5,260,280,300.5,-315.5,788,90,Pro Open,M,SBD,Wraps,300,187.5,300.5,1990
2,Yaroslav Litvinenko,Ярослав Литвиненко,Ukraine,85.1,220,230,-235,,130,140,150,,240,260,-270,,640,90,Pro Open,M,SBD,Wraps,230,150,260,1976
3,Vasil Mikhalskiy,Василь Михальський,Ukraine,82.9,200,212.5,222.5,,-135,135,-140,,225,240,-257.5,,597.5,90,Pro Open,M,SBD,Wraps,222.5,135,240,1980
4,Mikola Polishchuk,Микола Поліщук,Ukraine,89.8,-190,-190,190,,145,155,162.5,,180,195,205,,557.5,90,Pro Open,M,SBD,Wraps,190,162.5,205,1989
DQ,Igor Zhuk #1,Игорь Жук,Ukraine,86.6,200,,,,130,,,,180,,,,,90,Pro Open,M,SBD,Wraps,200,130,180,1988
1,Mikola Matvienko,Микола Матвієнко,Ukraine,93.2,240,250,-260,,160,170,-175,,240,-250,-250,,660,100,Pro Open,M,SBD,Wraps,250,170,240,1984
1,Igor Siviy,Ігор Сивий,Ukraine,117.9,302.5,315,320,,195,-202.5,202.5,,290,310,320,-323,842.5,125,Pro Open,M,SBD,Wraps,320,202.5,320,1991
1,Oleksandr Shvab,Олександр Шваб,Ukraine,125.3,150,,,,140,,,,170,,,,460,140,Pro Open,M,SBD,Wraps,150,140,170,1976
1,Oleksandr Shvab,Олександр Шваб,Ukraine,125.3,150,,,,140,,,,170,,,,460,140,Pro Submasters 33-39,M,SBD,Wraps,150,140,170,1976
1,Oleksandr Popovich,Олександр Попович,Ukraine,66.6,140,160,175,,120,-130,130,,165,180,-187.5,,485,67.5,Pro Masters 40-44,M,SBD,Wraps,175,130,180,1972
DQ,Gasan Garumov,Гасан Гарумов,Ukraine,71.6,-125,-125,-125,,-90,,,,-145,,,,,75,Pro Masters 50-54,M,SBD,Wraps,,,,1963
1,Viktor Pankevich,Віктор Панькевич,Ukraine,74.9,210,220,,,110,-115,115,,220,-230,-230,,555,75,Pro Masters 55-59,M,SBD,Wraps,220,115,220,1958
1,Oleksandr Popovich,Олександр Попович,Ukraine,66.6,140,160,175,,120,-130,130,,165,180,-187.5,,485,67.5,Pro Military/Fire/Police,M,SBD,Wraps,175,130,180,1972
1,Dmitro Korotich,Дмитро Коротич,Ukraine,92,175,200,210,,130,145,-155,,200,225,-245,,580,100,Pro Military/Fire/Police,M,SBD,Wraps,210,145,225,1988
1,Inna Danilyuk,Інна Данилюк,Ukraine,102.8,130,140,150,,65,70,-75,,180,-192.5,192.5,,412.5,110,Pro Open,F,SBD,Wraps,150,70,192.5,1977
1,Anton Popov,Антон Попов,Ukraine,71.2,180,-190,195,,-140,140,150,,190,-200,202.5,,547.5,75,Amateur Open,M,SBD,Multi-ply,195,150,202.5,1989
1,Andriy Dyatlov,Андрій Дятлов,Ukraine,80.2,240,260,275,,185,195,-200,,240,,,,710,82.5,Amateur Open,M,SBD,Multi-ply,275,195,240,1985
2,Andriy Krakovskiy,Андрій Краковський,Ukraine,76.8,-180,180,195,,135,-140,-140,,190,200,-210,,530,82.5,Amateur Open,M,SBD,Multi-ply,195,135,200,1988
1,Andriy Dyatlov,Андрій Дятлов,Ukraine,80.2,240,260,275,,180,195,-200,,240,,,,710,82.5,Amateur Military/Fire/Police,M,SBD,Multi-ply,275,195,240,1985
1,Vladislav Kvashchuk,Владислав Кващук,Ukraine,77.5,,,,,70,75,80,,,,,,80,82.5,Amateur Teen 13-15,M,B,Raw,,80,,2000
1,Oleksandr Popelnukha,Олександр Попелнуха,Ukraine,101.2,,,,,97.5,-102.5,-102.5,,,,,,97.5,110,Amateur Teen 13-15,M,B,Raw,,97.5,,2000
1,Vladislav Tkachenko,Владислав Ткаченко,Ukraine,64.6,,,,,120,-125,-125,,,,,,120,67.5,Amateur Teen 16-17,M,B,Raw,,120,,1998
2,Pavlo Pidtoptaniy,Павло Підтоптаний,Ukraine,66.4,,,,,-112.5,112.5,-115,,,,,,112.5,67.5,Amateur Teen 16-17,M,B,Raw,,112.5,,1997
1,Vladislav Volosyuk,Владислав Волосюк,Ukraine,71,,,,,100,110,115,,,,,,115,75,Amateur Teen 16-17,M,B,Raw,,115,,1998
2,Artem Bezus,,Poland,75,,,,,85,90,-95,,,,,,90,75,Amateur Teen 16-17,M,B,Raw,,90,,1997
1,Dmitro Chadov,Дмитро Чадов,Ukraine,75,,,,,135,-140,-140,,,,,,135,75,Amateur Teen 18-19,M,B,Raw,,135,,1996
1,Oleksandr Chernets,Олександр Чернець,Ukraine,67,,,,,160,-170,170,,,,,,170,67.5,Amateur Juniors 20-23,M,B,Raw,,170,,1991
2,Stanislav Yurchenko,Станіслав Юрченко,Ukraine,67.3,,,,,105,110,-112.5,,,,,,110,67.5,Amateur Juniors 20-23,M,B,Raw,,110,,1993
1,Bogdan Sidoruk,Богдан Сидорук,Ukraine,74.7,,,,,125,-132.5,132.5,,,,,,132.5,75,Amateur Juniors 20-23,M,B,Raw,,132.5,,1992
2,Pavlo Kozban,Павло Козбан,Ukraine,72.1,,,,,125,130,-132.5,,,,,,130,75,Amateur Juniors 20-23,M,B,Raw,,130,,1992
3,Vitaliy Zaets,Віталій Заєць,Ukraine,72.4,,,,,130,-137.5,-137.5,,,,,,130,75,Amateur Juniors 20-23,M,B,Raw,,130,,1992
4,Oleksandr Golovatskiy,Олександр Головацький,Ukraine,72.1,,,,,115,122.5,127.5,,,,,,127.5,75,Amateur Juniors 20-23,M,B,Raw,,127.5,,1993
1,Sergiy Kirichuk,Сергій Киричук,Ukraine,81.7,,,,,132.5,-140,-140,,,,,,132.5,82.5,Amateur Juniors 20-23,M,B,Raw,,132.5,,1991
2,Anton Chirkov,Антон Чирков,Ukraine,78.6,,,,,120,-132.5,-132.5,,,,,,120,82.5,Amateur Juniors 20-23,M,B,Raw,,120,,1993
DQ,Anton Mikhaylenko,Антон Михайленко,Ukraine,93.3,,,,,-140,-140,-140,,,,,,,100,Amateur Juniors 20-23,M,B,Raw,,,,1994
1,Sergiy Kovalchuk,Сергій Ковальчук,Ukraine,102.1,,,,,165,-175,-175,,,,,,165,110,Amateur Juniors 20-23,M,B,Raw,,165,,1993
2,Mikhaylo Shpuk,Михайло Шпук,Ukraine,105.3,,,,,150,160,-167.5,,,,,,160,110,Amateur Juniors 20-23,M,B,Raw,,160,,1992
1,Oleksandr Chernets,Олександр Чернець,Ukraine,67,,,,,160,-170,170,,,,,,170,67.5,Amateur Open,M,B,Raw,,170,,1991
2,Lev Boyko,Лев Бойко,Ukraine,61.9,,,,,112.5,117.5,-120,,,,,,117.5,67.5,Amateur Open,M,B,Raw,,117.5,,1987
3,Pavlo Pidtoptaniy,Павло Підтоптаний,Ukraine,66.4,,,,,-112.5,112.5,-115,,,,,,112.5,67.5,Amateur Open,M,B,Raw,,112.5,,1997
1,Oleksiy Podoba,Олексій Подоба,Ukraine,74.2,,,,,150,155,-162.5,,,,,,155,75,Amateur Open,M,B,Raw,,155,,1989
2,Mikhaylo Tkach,Михайло Ткач,Ukraine,70.8,,,,,125,-137.5,140,,,,,,140,75,Amateur Open,M,B,Raw,,140,,1990
3,Pavlo Kozban,Павло Козбан,Ukraine,72.1,,,,,125,130,-132.5,,,,,,130,75,Amateur Open,M,B,Raw,,130,,1992
4,Vitaliy Zaets,Віталій Заєць,Ukraine,72.4,,,,,130,-137.5,-137.5,,,,,,130,75,Amateur Open,M,B,Raw,,130,,1992
1,Denis Sharapov,Денис Шарапов,Ukraine,79.2,,,,,125,132.5,-140,,,,,,132.5,82.5,Amateur Open,M,B,Raw,,132.5,,1987
2,Yuriy Khvedun,Юрій Хведун,Ukraine,79,,,,,120,-127.5,-127.5,,,,,,120,82.5,Amateur Open,M,B,Raw,,120,,1984
1,Oleksandr Pishchanskiy,Олександр Піщанський,Ukraine,88.3,,,,,140,150,-152.5,,,,,,150,90,Amateur Open,M,B,Raw,,150,,1984
2,Anatoliy Struk,Анатолій Струк,Ukraine,89.9,,,,,150,-157.5,-157.5,,,,,,150,90,Amateur Open,M,B,Raw,,150,,1983
3,Oleksandr Lisovskiy #1,Олександр Лісовський,Ukraine,84.9,,,,,147.5,-155,-155,,,,,,147.5,90,Amateur Open,M,B,Raw,,147.5,,1990
4,Vitaliy Chiruk,Віталій Чирук,Ukraine,86.3,,,,,145,-152.5,-152.5,,,,,,145,90,Amateur Open,M,B,Raw,,145,,1986
1,Mikola Miroshnik,Микола Мірошник,Ukraine,97.5,,,,,-157.5,157.5,-162.5,,,,,,157.5,100,Amateur Open,M,B,Raw,,157.5,,1989
2,Sergiy Zolotarenko,Сергій Золотаренко,Ukraine,96.4,,,,,130,-135,135,,,,,,135,100,Amateur Open,M,B,Raw,,135,,1985
1,Pavlo Mishchuk,Павло Міщук,Ukraine,103.5,,,,,160,170,-177.5,,,,,,170,110,Amateur Open,M,B,Raw,,170,,1988
2,Viktor Bozhukha,Віктор Божуха,Ukraine,100.2,,,,,160,-170,-170,,,,,,160,110,Amateur Open,M,B,Raw,,160,,1978
3,Mikhaylo Shpuk,Михайло Шпук,Ukraine,105.3,,,,,150,160,-167.5,,,,,,160,110,Amateur Open,M,B,Raw,,160,,1992
4,Vitaliy Demedyuk,Віталій Демедюк,Ukraine,109.4,,,,,135,145,152.5,,,,,,152.5,110,Amateur Open,M,B,Raw,,152.5,,1989
1,Vladislav Marchenko,Владислав Марченко,Ukraine,122.7,,,,,170,175,-182.5,,,,,,175,125,Amateur Open,M,B,Raw,,175,,1967
1,Oleksandr Pishchanskiy,Олександр Піщанський,Ukraine,88.3,,,,,140,150,-152.5,,,,,,150,90,Amateur Submasters 33-39,M,B,Raw,,150,,1984
2,Ivan Timokhin,Іван Тімохін,Ukraine,88.9,,,,,-80,85,100,,,,,,100,90,Amateur Submasters 33-39,M,B,Raw,,100,,1980
1,Sergiy Meritsa,Сергій Мерица,Ukraine,99.1,,,,,90,105,,,,,,,105,100,Amateur Submasters 33-39,M,B,Raw,,105,,1976
1,Viktor Bozhukha,Віктор Божуха,Ukraine,100.2,,,,,160,-170,-170,,,,,,160,110,Amateur Submasters 33-39,M,B,Raw,,160,,1978
1,Igor Radets,Ігор Радець,Ukraine,77,,,,,-120,-120,120,,,,,,120,82.5,Amateur Masters 40-44,M,B,Raw,,120,,1974
DQ,Dmitro Lutsenko,Дмитро Луценко,Ukraine,84.5,,,,,-92.5,-92.5,-92.5,,,,,,,90,Amateur Masters 40-44,M,B,Raw,,,,1971
1,Evgeniy Krashanovskiy,Євгеній Крашановський,Ukraine,98,,,,,180,185,-190,,,,,,185,100,Amateur Masters 40-44,M,B,Raw,,185,,1970
1,Ruslan Pilipchuk,Руслан Пилипчук,Ukraine,103.3,,,,,140,145,-150,,,,,,145,110,Amateur Masters 40-44,M,B,Raw,,145,,1970
1,Vladislav Marchenko,Владислав Марченко,Ukraine,122.7,,,,,170,175,-182.5,,,,,,175,125,Amateur Masters 45-49,M,B,Raw,,175,,1967
1,Mikola Tarnavskiy,Микола Тарнавський,Ukraine,95.1,,,,,-160,160,-170,,,,,,160,100,Amateur Masters 50-54,M,B,Raw,,160,,1962
1,Valentin Aldakimov,Валентин Алдакімов,Ukraine,72.2,,,,,-70,70,-80,,,,,,70,75,Amateur Masters 60-64,M,B,Raw,,70,,1952
1,Yuriy Filonenko,Юрій Філоненко,Ukraine,86,,,,,120,125,-127.5,,,,,,125,90,Amateur Masters 60-64,M,B,Raw,,125,,1954
1,Ruslan Pilipchuk,Руслан Пилипчук,Ukraine,103.3,,,,,140,145,-150,,,,,,145,110,Amateur Military/Fire/Police,M,B,Raw,,145,,1970
1,Yana Shishpanova,Яна Шишпанова,Ukraine,58.2,,,,,60,65,-70,,,,,,65,60,Amateur Teen 13-15,F,B,Raw,,65,,1999
1,Olga Morozovska,Ольга Морозовська,Ukraine,51.5,,,,,50,55,-60,,,,,,55,52,Amateur Juniors 20-23,F,B,Raw,,55,,1991
2,Evgeniya Li,Євгенія Лі,Ukraine,51.8,,,,,42.5,45,47.5,,,,,,47.5,52,Amateur Juniors 20-23,F,B,Raw,,47.5,,1993
1,Mariya Mislivets,Марія Мисливець,Ukraine,55,,,,,55,60,-62.5,,,,,,60,56,Amateur Juniors 20-23,F,B,Raw,,60,,1994
1,Diana Korobova,Діана Коробова,Ukraine,63.8,,,,,52.5,57.5,60,,,,,,60,67.5,Amateur Juniors 20-23,F,B,Raw,,60,,1994
1,Nataliya Melnichuk,Наталія Мельничук,Ukraine,49.2,,,,,62.5,65,67.5,,,,,,67.5,52,Amateur Open,F,B,Raw,,67.5,,1975
2,Marina Matvienko,Марина Матвієнко,Ukraine,49.2,,,,,45,50,55,,,,,,55,52,Amateur Open,F,B,Raw,,55,,1989
3,Darina Prisyazhna,Дарина Присяжна,Ukraine,48.4,,,,,52.5,-55,-55,,,,,,52.5,52,Amateur Open,F,B,Raw,,52.5,,1989
1,Mariya Vernyuk,Марія Вернюк,Ukraine,52.7,,,,,-62.5,62.5,67.5,,,,,,67.5,56,Amateur Open,F,B,Raw,,67.5,,1990
2,Sofiya Fedorovich,Софія Федорович,Ukraine,53,,,,,-45,-50,50,,,,,,50,56,Amateur Open,F,B,Raw,,50,,1982
3,Liana Kapitula,Ліана Капітула,Ukraine,54.9,,,,,42.5,-47.5,47.5,,,,,,47.5,56,Amateur Open,F,B,Raw,,47.5,,1988
1,Irina Ternova,Ірина Тернова,Ukraine,58.3,,,,,85,-90,-90,,,,,,85,60,Amateur Open,F,B,Raw,,85,,1974
1,Narina Kocharyan,Наріна Кочарян,Ukraine,61.8,,,,,72.5,77.5,-82.5,,,,,,77.5,67.5,Amateur Open,F,B,Raw,,77.5,,1985
2,Nataliya Mavdrik,Наталія Мавдрик,Ukraine,61.2,,,,,72.5,-77.5,-77.5,,,,,,72.5,67.5,Amateur Open,F,B,Raw,,72.5,,1984
DQ,Anna Ignatyuk #1,Анна Ігнатюк,Ukraine,65.9,,,,,-55,-55,-55,,,,,,,67.5,Amateur Open,F,B,Raw,,,,1990
1,Tetyana Khomyak,Тетяна Хомяк,Ukraine,73.2,,,,,62.5,67.5,-72.5,,,,,,67.5,75,Amateur Open,F,B,Raw,,67.5,,1979
1,Tetyana Shavidze,Тетяна Шавідзе,Ukraine,63,,,,,70,75,-77.5,,,,,,75,67.5,Amateur Submasters 33-39,F,B,Raw,,75,,1977
1,Irina Ternova,Ірина Тернова,Ukraine,58.3,,,,,85,-90,-90,,,,,,85,60,Amateur Masters 40-44,F,B,Raw,,85,,1974
1,Oksana Tkach,Оксана Ткач,Ukraine,74.8,,,,,40,45,50,,,,,,50,75,Amateur Masters 40-44,F,B,Raw,,50,,1971
1,Maksim Sheligin,Максим Шелигін,Ukraine,54.5,,,,,40,-45,45,,,,,,45,56,Pro Teen 13-15,M,B,Raw,,45,,2001
1,Vladislav Litvin,Владислав Литвин,Ukraine,81,,,,,130,135,140,,,,,,140,82.5,Pro Teen 16-17,M,B,Raw,,140,,1997
2,Dmitro Pasichnik,Дмитро Пасічник,Ukraine,78,,,,,85,95,-102.5,,,,,,95,82.5,Pro Teen 16-17,M,B,Raw,,95,,1998
1,Vitaliy Galyant,Віталій Галянт,Ukraine,68.8,,,,,95,-100,-100,,,,,,95,75,Pro Teen 18-19,M,B,Raw,,95,,1996
1,Andriy Polishchuk,Андрій Поліщук,Ukraine,82,,,,,145,-155,157.5,,,,,,157.5,82.5,Pro Juniors 20-23,M,B,Raw,,157.5,,1993
2,Oleksandr Fedoriv,Олександр Федорів,Ukraine,78.6,,,,,125,130,135,,,,,,135,82.5,Pro Juniors 20-23,M,B,Raw,,135,,1993
1,Timofiy Lyakhovich,Тимофій Ляхович,Ukraine,87.6,,,,,-140,140,-152.5,,,,,,140,90,Pro Juniors 20-23,M,B,Raw,,140,,1992
1,Artur Markov,Артур Марков,Ukraine,93.1,,,,,162.5,-170,-170,,,,,,162.5,100,Pro Juniors 20-23,M,B,Raw,,162.5,,1994
2,Oleksandr Manzhula,Олександр Манжула,Ukraine,96.7,,,,,150,162.5,-165,,,,,,162.5,100,Pro Juniors 20-23,M,B,Raw,,162.5,,1993
DQ,Oleksandr Zhariy,Олександр Жарий,Ukraine,58.4,,,,,-122.5,-122.5,-122.5,,,,,,,60,Pro Open,M,B,Raw,,,,1972
1,Vladislav Severin,Владислав Северин,Ukraine,74.9,,,,,150,155,-160,,,,,,155,75,Pro Open,M,B,Raw,,155,,1985
2,Oleksandr Romashchenko,Олександр Ромащенко,Ukraine,75,,,,,135,145,-150,,,,,,145,75,Pro Open,M,B,Raw,,145,,1989
3,Yuriy Pets,Юрій Пець,Ukraine,75,,,,,135,140,-147.5,,,,,,140,75,Pro Open,M,B,Raw,,140,,1988
1,Mikola Sklyarov,Микола Скляров,Ukraine,82.4,,,,,110,120,130,,,,,,130,82.5,Pro Open,M,B,Raw,,130,,1989
1,Oleksandr Onischenko #1,Олександр Оніщенко,Ukraine,89.3,,,,,200,205,210,,,,,,210,90,Pro Open,M,B,Raw,,210,,1980
2,Vadim Chekhanyuk,Вадим Чеханюк,Ukraine,86.9,,,,,150,160,-167.5,,,,,,160,90,Pro Open,M,B,Raw,,160,,1970
3,Dawid Kijewski,,Poland,85.6,,,,,140,147.5,155,,,,,,155,90,Pro Open,M,B,Raw,,155,,1988
DQ,Vyacheslav Perekhrest,Вячеслав Перехрест,Ukraine,86.8,,,,,-185,-185,-185,,,,,,,90,Pro Open,M,B,Raw,,,,1984
1,Evgen Menesenko,Євген Менесенко,Ukraine,94.7,,,,,210,220,-225,,,,,,220,100,Pro Open,M,B,Raw,,220,,1989
2,Evgen Aleksienko,Євген Алексієнко,Ukraine,92.7,,,,,195,205,210,,,,,,210,100,Pro Open,M,B,Raw,,210,,1976
1,Sergiy Faktulin,Сергій Фактулін,Ukraine,101.1,,,,,185,190,195,-200,,,,,195,110,Pro Open,M,B,Raw,,195,,1982
2,Volodimir Nasadik,Володимир Насадик,Ukraine,105.2,,,,,185,192.5,-197.5,,,,,,192.5,110,Pro Open,M,B,Raw,,192.5,,1980
3,Kostyantin Mikhaylenko,Костянтин Михайленко,Ukraine,105,,,,,175,182.5,187.5,,,,,,187.5,110,Pro Open,M,B,Raw,,187.5,,1980
DQ,Dmitro Gak,Дмитро Гак,Ukraine,101.7,,,,,-210,-210,-210,,,,,,,110,Pro Open,M,B,Raw,,,,1983
DQ,Sergiy Shumskiy,Сергій Шумський,Ukraine,105.2,,,,,140,,,,,,,,,110,Pro Open,M,B,Raw,,140,,1985
1,Mikola Prezhin,Микола Прежин,Ukraine,115.6,,,,,200,210,-220,,,,,,210,125,Pro Open,M,B,Raw,,210,,1981
2,Igor Siviy,Ігор Сивий,Ukraine,117.9,,,,,195,-202.5,202.5,,,,,,202.5,125,Pro Open,M,B,Raw,,202.5,,1991
1,Oleksandr Shvab,Олександр Шваб,Ukraine,125.3,,,,,140,,,,,,,,140,140,Pro Open,M,B,Raw,,140,,1976
1,Oleksandr Onischenko #1,Олександр Оніщенко,Ukraine,89.3,,,,,200,205,210,,,,,,210,90,Pro Submasters 33-39,M,B,Raw,,210,,1980
1,Sergiy Faktulin,Сергій Фактулін,Ukraine,101.1,,,,,185,190,195,-200,,,,,195,110,Pro Submasters 33-39,M,B,Raw,,195,,1982
2,Kostyantin Mikhaylenko,Костянтин Михайленко,Ukraine,105,,,,,175,182.5,187.5,,,,,,187.5,110,Pro Submasters 33-39,M,B,Raw,,187.5,,1980
1,Oleksandr Shvab,Олександр Шваб,Ukraine,125.3,,,,,140,,,,,,,,140,140,Pro Submasters 33-39,M,B,Raw,,140,,1976
DQ,Oleksandr Zhariy,Олександр Жарий,Ukraine,58.4,,,,,-122.5,-122.5,-122.5,,,,,,,60,Pro Masters 40-44,M,B,Raw,,,,1972
1,Oleksandr Popovich,Олександр Попович,Ukraine,66.6,,,,,120,-130,130,,,,,,130,67.5,Pro Masters 40-44,M,B,Raw,,130,,1972
1,Vadim Chekhanyuk,Вадим Чеханюк,Ukraine,86.9,,,,,150,160,-167.5,,,,,,160,90,Pro Masters 40-44,M,B,Raw,,160,,1970
2,Oleksandr Ploskiy,Олександр Плоский,Ukraine,85,,,,,140,-147.5,-147.5,,,,,,140,90,Pro Masters 40-44,M,B,Raw,,140,,1974
1,Viktor Galabir,Віктор Галабір,Ukraine,96.2,,,,,150,157.5,162.5,,,,,,162.5,100,Pro Masters 40-44,M,B,Raw,,162.5,,1974
1,Igor Chumak,Ігор Чумак,Ukraine,71.3,,,,,110,115,,,,,,,115,75,Pro Masters 45-49,M,B,Raw,,115,,1965
1,Mikhaylo Geenko,Михайло Геєнко,Ukraine,108.6,,,,,160,-165,-165,,,,,,160,110,Pro Masters 50-54,M,B,Raw,,160,,1963
1,Valeriy Kolyadyuk,Валерій Колядюк,Ukraine,103.5,,,,,120,130,135,,,,,,135,110,Pro Masters 65-69,M,B,Raw,,135,,1949
1,Oleksandr Popovich,Олександр Попович,Ukraine,66.6,,,,,120,-130,130,,,,,,130,67.5,Pro Military/Fire/Police,M,B,Raw,,130,,1972
1,Oleksandr Ploskiy,Олександр Плоский,Ukraine,85,,,,,140,-147.5,-147.5,,,,,,140,90,Pro Military/Fire/Police,M,B,Raw,,140,,1974
1,Olesya Pushkarchuk,Олеся Пушкарчук,Ukraine,53.9,,,,,35,40,42.5,,,,,,42.5,56,Pro Juniors 20-23,F,B,Raw,,42.5,,1991
1,Olena Shcherbinina,Олена Щербініна,Ukraine,61.8,,,,,60,-62.5,-62.5,,,,,,60,67.5,Pro Open,F,B,Raw,,60,,1982
1,Andriy Dyatlov,Андрій Дятлов,Ukraine,80.2,,,,,185,195,-200,,,,,,195,82.5,Amateur Open,M,B,Multi-ply,,195,,1985
2,Nazariy Perkhulin,Назарій Перхулін,Ukraine,80.6,,,,,170,-180,-180,,,,,,170,82.5,Amateur Open,M,B,Multi-ply,,170,,1988
1,Oleksandr Foshchanko,Олександр Фощанко,Ukraine,111,,,,,120,,,,,,,,120,125,Amateur Open,M,B,Multi-ply,,120,,1989
1,Sergiy Meritsa,Сергій Мерица,Ukraine,99.1,,,,,125,-165,-165,,,,,,125,100,Amateur Submasters 33-39,M,B,Multi-ply,,125,,1976
1,Vitaliy Sobkovskiy,Віталій Собковський,Ukraine,81,,,,,195,-200,-200,,,,,,195,82.5,Pro Juniors 20-23,M,B,Multi-ply,,195,,1991
1,Roman Pelikh,Роман Пелих,Ukraine,75,,,,,-230,240,-250,,,,,,240,75,Pro Open,M,B,Multi-ply,,240,,1985
1,Vitaliy Sobkovskiy,Віталій Собковський,Ukraine,81,,,,,195,-200,-200,,,,,,195,82.5,Pro Open,M,B,Multi-ply,,195,,1991
DQ,Volodimir Galiga,Володимир Галига,Ukraine,86.6,,,,,-240,-245,-245,,,,,,,90,Pro Open,M,B,Multi-ply,,,,1983
1,Efim Stepatskiy,Єфим Степацький,Ukraine,94.5,,,,,-200,200,,,,,,,200,100,Pro Open,M,B,Multi-ply,,200,,1987
DQ,Oleksandr Shvab,Олександр Шваб,Ukraine,125.3,,,,,-210,,,,,,,,,140,Pro Open,M,B,Multi-ply,,,,1976
DQ,Oleksandr Shvab,Олександр Шваб,Ukraine,125.3,,,,,-210,,,,,,,,,140,Pro Submasters 33-39,M,B,Multi-ply,,,,1976
1,Inna Yudina,Інна Юдіна,Ukraine,78,,,,,70,80,-90,,,,,,80,82.5,Pro Open,F,B,Multi-ply,,80,,1978
1,Ivan Sklyar,Іван Скляр,Ukraine,59.4,,,,,,,,,120,130,140,,140,60,Amateur Teen 13-15,M,D,Raw,,,140,2000
DQ,Vladislav Valchevskiy,Владислав Вальчевський,Ukraine,,,,,,,,,,,,,,,67.5,Amateur Teen 13-15,M,D,Raw,,,,2001
1,Nazar Sokol,Назар Сокол,Ukraine,64.6,,,,,,,,,140,150,160,,160,67.5,Amateur Teen 16-17,M,D,Raw,,,160,1998
1,Vladislav Volosyuk,Владислав Волосюк,Ukraine,71,,,,,,,,,100,,,,100,75,Amateur Teen 16-17,M,D,Raw,,,100,1998
1,Evgen Tsibulko,Євген Цибулько,Ukraine,80.7,,,,,,,,,140,150,160,,160,82.5,Amateur Teen 16-17,M,D,Raw,,,160,1997
1,Anton Voykov,Антон Войков,Ukraine,73,,,,,,,,,210,222.5,235,,235,75,Amateur Teen 18-19,M,D,Raw,,,235,1996
1,Andriy Abramovich,Андрій Абрамович,Ukraine,67.1,,,,,,,,,155,165,-175,,165,67.5,Amateur Juniors 20-23,M,D,Raw,,,165,1994
1,Oleg Derlyuk,Олег Дерлюк,Ukraine,77.1,,,,,,,,,215,232.5,242.5,250,242.5,82.5,Amateur Juniors 20-23,M,D,Raw,,,242.5,1992
2,Sergiy Kirichuk,Сергій Киричук,Ukraine,81.7,,,,,,,,,205,212.5,217.5,,217.5,82.5,Amateur Juniors 20-23,M,D,Raw,,,217.5,1991
3,Roman Pavlenko,Роман Павленко,Ukraine,76.6,,,,,,,,,195,205,215,,215,82.5,Amateur Juniors 20-23,M,D,Raw,,,215,1994
4,Dmitro Galik,Дмитро Галік,Ukraine,77.3,,,,,,,,,180,202.5,-205,,202.5,82.5,Amateur Juniors 20-23,M,D,Raw,,,202.5,1992
5,Anton Chirkov,Антон Чирков,Ukraine,78.6,,,,,,,,,180,195,-210,,195,82.5,Amateur Juniors 20-23,M,D,Raw,,,195,1993
6,Denis Lukyanov,Денис Лукьянов,Ukraine,78.5,,,,,,,,,165,-180,-180,,165,82.5,Amateur Juniors 20-23,M,D,Raw,,,165,1991
1,Anatoliy Korniychuk,Анатолій Корнійчук,Ukraine,83.9,,,,,,,,,240,250,260,270,260,90,Amateur Juniors 20-23,M,D,Raw,,,260,1992
2,Vitaliy Veres,Віталій Верес,Ukraine,84.4,,,,,,,,,225,-240,240,,240,90,Amateur Juniors 20-23,M,D,Raw,,,240,1994
3,Roman Moroz,Роман Мороз,Ukraine,85.8,,,,,,,,,195,205,210,,210,90,Amateur Juniors 20-23,M,D,Raw,,,210,1994
1,Sergiy Gaydrikh,Сергій Гайдрих,Ukraine,92.1,,,,,,,,,250,257.5,-262.5,,257.5,100,Amateur Juniors 20-23,M,D,Raw,,,257.5,1993
1,Mikhaylo Gerula,Михайло Герула,Ukraine,100.1,,,,,,,,,200,215,230,,230,110,Amateur Juniors 20-23,M,D,Raw,,,230,1993
2,Nazar Miroshnichenko,Назар Мірошніченко,Ukraine,105,,,,,,,,,-230,-230,230,,230,110,Amateur Juniors 20-23,M,D,Raw,,,230,1994
1,Dmitro Kondratenko,Дмитро Кондратенко,Ukraine,65,,,,,,,,,170,180,190,,190,67.5,Amateur Open,M,D,Raw,,,190,1986
2,Sergiy Duka,Сергій Дука,Ukraine,66.4,,,,,,,,,140,155,175,,175,67.5,Amateur Open,M,D,Raw,,,175,1991
3,Andriy Abramovich,Андрій Абрамович,Ukraine,67.1,,,,,,,,,155,165,-175,,165,67.5,Amateur Open,M,D,Raw,,,165,1994
1,Ivan Kapelyukh,Іван Капелюх,Ukraine,72.2,,,,,,,,,210,220,-230,,220,75,Amateur Open,M,D,Raw,,,220,1985
2,Maksim Tokmakov,Максим Токмаков,Ukraine,69.5,,,,,,,,,175,195,-200,,195,75,Amateur Open,M,D,Raw,,,195,1985
3,Dmitro Znakhur,Дмитро Знахур,Ukraine,69.1,,,,,,,,,155,-170,-170,,155,75,Amateur Open,M,D,Raw,,,155,1981
1,Roman Medvedchuk,Роман Медведчук,Ukraine,81.6,,,,,,,,,230,255,265,,265,82.5,Amateur Open,M,D,Raw,,,265,1981
2,Eduard Lisovetskiy,Едуард Лісовецький,Ukraine,78.8,,,,,,,,,230,240,-250,,240,82.5,Amateur Open,M,D,Raw,,,240,1988
3,Dmitro Galik,Дмитро Галік,Ukraine,77.3,,,,,,,,,180,202.5,-205,,202.5,82.5,Amateur Open,M,D,Raw,,,202.5,1992
4,Denis Lukyanov,Денис Лукьянов,Ukraine,78.5,,,,,,,,,165,-180,-180,,165,82.5,Amateur Open,M,D,Raw,,,165,1991
1,Oleksandr Lisovskiy #1,Олександр Лісовський,Ukraine,84.9,,,,,,,,,225,241,252.5,-263,252.5,90,Amateur Open,M,D,Raw,,,252.5,1990
2,Genadiy Motlyuk,Генадій Мотлюк,Ukraine,84.4,,,,,,,,,210,225,-240,,225,90,Amateur Open,M,D,Raw,,,225,1990
1,Oleksandr Dmitriev,Олександр Дмитрієв,Ukraine,97.8,,,,,,,,,230,240,-250,,240,100,Amateur Open,M,D,Raw,,,240,1987
2,Pavlo Semkovich,Павло Семкович,Ukraine,98.3,,,,,,,,,210,222.5,-230,,222.5,100,Amateur Open,M,D,Raw,,,222.5,1980
1,Pavlo Mishchuk,Павло Міщук,Ukraine,103.5,,,,,,,,,225,242.5,252.5,,252.5,110,Amateur Open,M,D,Raw,,,252.5,1988
2,Vadim Omelchuk,Вадим Омельчук,Ukraine,100.7,,,,,,,,,215,225,235,,235,110,Amateur Open,M,D,Raw,,,235,1989
3,Vitaliy Kashcheev,Віталій Кащеєв,Ukraine,105.5,,,,,,,,,210,230,,,230,110,Amateur Open,M,D,Raw,,,230,1980
1,Igor Golovko #1,Ігор Головко,Ukraine,117.5,,,,,,,,,210,225,245,,245,125,Amateur Open,M,D,Raw,,,245,1983
2,Oleksandr Foshchanko,Олександр Фощанко,Ukraine,111,,,,,,,,,175,190,205,,205,125,Amateur Open,M,D,Raw,,,205,1989
1,Roman Medvedchuk,Роман Медведчук,Ukraine,81.6,,,,,,,,,230,255,265,,265,82.5,Amateur Submasters 33-39,M,D,Raw,,,265,1981
1,Ivan Timokhin,Іван Тімохін,Ukraine,88.9,,,,,,,,,110,125,150,,150,90,Amateur Submasters 33-39,M,D,Raw,,,150,1980
1,Dmitro Barkov,Дмитро Барков,Ukraine,73.9,,,,,,,,,170,182.5,195,,195,75,Amateur Masters 40-44,M,D,Raw,,,195,1969
1,Volodimir Andreev,Володимир Андреєв,Ukraine,96,,,,,,,,,170,,,,170,100,Amateur Masters 40-44,M,D,Raw,,,170,1973
1,Boris Khoroshiy,Борис Хороший,Ukraine,96.6,,,,,,,,,165,175,-190,,175,100,Amateur Masters 45-49,M,D,Raw,,,175,1966
1,Oleksandr Dmitriev,Олександр Дмитрієв,Ukraine,97.8,,,,,,,,,230,240,-250,,240,100,Amateur Military/Fire/Police,M,D,Raw,,,240,1987
1,Olena Pilipchuk,Олена Пилипчук,Ukraine,54.5,,,,,,,,,97.5,107.5,112.5,,112.5,56,Amateur Teen 16-17,F,D,Raw,,,112.5,1997
1,Lyudmila Sus,Людмила Сус,Ukraine,59.3,,,,,,,,,105,115,125,,125,60,Amateur Teen 16-17,F,D,Raw,,,125,1997
1,Olena Medvedeva,Олена Медведєва,Ukraine,42.4,,,,,,,,,45,50,55,,55,44,Amateur Juniors 20-23,F,D,Raw,,,55,1991
1,Evgeniya Li,Євгенія Лі,Ukraine,51.8,,,,,,,,,95,100,105,,105,52,Amateur Juniors 20-23,F,D,Raw,,,105,1993
1,Alona Antonchik,Альона Антончик,Ukraine,65.1,,,,,,,,,105,112.5,120,,120,67.5,Amateur Juniors 20-23,F,D,Raw,,,120,1992
1,Oleksandra Deda,Олександра Деда,Ukraine,47.9,,,,,,,,,90,100,-105,,100,48,Amateur Open,F,D,Raw,,,100,1986
2,Nataliya Parnak,Наталія Парнак,Ukraine,44.1,,,,,,,,,70,75,80,,80,48,Amateur Open,F,D,Raw,,,80,1985
3,Yuliya Borshchevska,Юлія Борщевська,Ukraine,46.3,,,,,,,,,72.5,77.5,80,,80,48,Amateur Open,F,D,Raw,,,80,1985
1,Marina Matvienko,Марина Матвієнко,Ukraine,49.2,,,,,,,,,120,130,137.5,,137.5,52,Amateur Open,F,D,Raw,,,137.5,1989
1,Mariya Vernyuk,Марія Вернюк,Ukraine,52.7,,,,,,,,,110,120,125,,125,56,Amateur Open,F,D,Raw,,,125,1990
2,Liana Kapitula,Ліана Капітула,Ukraine,54.9,,,,,,,,,70,75,-82.5,,75,56,Amateur Open,F,D,Raw,,,75,1988
1,Nataliya Mavdrik,Наталія Мавдрик,Ukraine,61.2,,,,,,,,,130,137.5,142.5,,142.5,67.5,Amateur Open,F,D,Raw,,,142.5,1984
2,Alona Antonchik,Альона Антончик,Ukraine,65.1,,,,,,,,,105,112.5,120,,120,67.5,Amateur Open,F,D,Raw,,,120,1992
1,Tetyana Khomyak,Тетяна Хомяк,Ukraine,73.2,,,,,,,,,100,112.5,-115,,112.5,75,Amateur Open,F,D,Raw,,,112.5,1979
1,Yuliya Maystruk,Юлія Майструк,Ukraine,91.7,,,,,,,,,105,115,125,,125,100,Amateur Open,F,D,Raw,,,125,1981
1,Oksana Tkach,Оксана Ткач,Ukraine,74.8,,,,,,,,,90,100,110,,110,75,Amateur Masters 40-44,F,D,Raw,,,110,1971
1,Nataliya Nikitchenko,Наталія Нікітченко,Ukraine,60,,,,,,,,,90,100,105,,105,60,Amateur Military/Fire/Police,F,D,Raw,,,105,1988
1,Oleksandr Manzhula,Олександр Манжула,Ukraine,96.7,,,,,,,,,-240,240,255,,255,100,Pro Juniors 20-23,M,D,Raw,,,255,1993
1,Volodimir Koval,Володимир Коваль,Ukraine,64.8,,,,,,,,,205,212.5,-220,,212.5,67.5,Pro Open,M,D,Raw,,,212.5,1983
1,Sergiy Zakharev,Сергій Захарьєв,Ukraine,81.2,,,,,,,,,205,220,225,,225,82.5,Pro Open,M,D,Raw,,,225,1982
1,Mikola Polishchuk,Микола Поліщук,Ukraine,89.8,,,,,,,,,180,195,205,,205,90,Pro Open,M,D,Raw,,,205,1989
1,Igor Siviy,Ігор Сивий,Ukraine,117.9,,,,,,,,,290,310,320,-323,320,125,Pro Open,M,D,Raw,,,320,1991
1,Oleksandr Shvab,Олександр Шваб,Ukraine,125.3,,,,,,,,,170,,,,170,140,Pro Open,M,D,Raw,,,170,1976
1,Oleksandr Shvab,Олександр Шваб,Ukraine,125.3,,,,,,,,,170,,,,170,140,Pro Submasters 33-39,M,D,Raw,,,170,1976
1,Viktor Galabir,Віктор Галабір,Ukraine,96.2,,,,,,,,,270,-282.5,-282.5,,270,100,Pro Masters 40-44,M,D,Raw,,,270,1974
1,Gasan Garumov,Гасан Гарумов,Ukraine,71.6,,,,,,,,,135,150,-170,,150,75,Pro Masters 50-54,M,D,Raw,,,150,1963
1,Andriy Dyatlov,Андрій Дятлов,Ukraine,80.2,,,,,,,,,240,,,,240,82.5,Amateur Open,M,D,Multi-ply,,,240,1985
1,Ivan Ovcharenko #1,Іван Овчаренко,Ukraine,92.3,,,,,,,,,-190,190,205,,205,100,Amateur Open,M,D,Multi-ply,,,205,1989
1,Dmitro Gavrilyuk,Дмитро Гаврилюк,Ukraine,86.9,,,,,,,,,220,232.5,-240,,232.5,90,Pro Open,M,D,Multi-ply,,,232.5,1989
1,Efim Stepatskiy,Єфим Степацький,Ukraine,94.5,,,,,,,,,260,280,-300,,280,100,Pro Open,M,D,Multi-ply,,,280,1987
1,Inna Yudina,Інна Юдіна,Ukraine,78,,,,,,,,,120,130,140,,140,82.5,Pro Open,F,D,Multi-ply,,,140,1978
