Division,WeightClassKg,Place,Name,Team,BodyweightKg,Best3SquatKg,Best3BenchKg,Best3DeadliftKg,TotalKg,Equipment,Event,Sex,BirthDate
Girls,44.23,1,Deandra Avalos,Geronimo Navarro,39.92,74.84,49.9,77.11,201.85,Single-ply,SBD,F,
Girls,44.23,2,Mercedes Reyes,Del Valle,41.1,49.9,22.68,52.16,124.74,Single-ply,SBD,F,
Girls,47.85,1,Jennifer Vieyra-Lopez,Geronimo Navarro,47.17,70.31,47.63,81.65,199.58,Single-ply,SBD,F,
Girls,47.85,2,Jada Lopez,Del Valle,47.36,68.04,40.82,77.11,185.97,Single-ply,SBD,F,
Girls,51.94,1,Sunny Knight,Marion,50.8,79.38,43.09,83.91,206.38,Single-ply,SBD,F,
Girls,56.02,1,Savanna Dickey,Marion,55.79,115.67,47.63,113.4,276.69,Single-ply,SBD,F,
Girls,56.02,2,Rosita Driscoll,Del Valle,54.7,95.25,63.5,102.06,260.82,Single-ply,SBD,F,
Girls,56.02,3,Halle Lanham-Scheib,Geronimo Navarro,55.34,97.52,61.23,102.06,260.82,Single-ply,SBD,F,
Girls,56.02,4,Haley Karlik,Geronimo Navarro,55.16,88.45,58.97,90.72,238.14,Single-ply,SBD,F,
Girls,56.02,5,Stacey Hartmann,Marion,52.34,81.65,49.9,104.33,235.87,Single-ply,SBD,F,
Girls,56.02,6,Ashley Carrizales,Del Valle,53.8,56.7,22.68,72.57,151.95,Single-ply,SBD,F,
Girls,60.1,1,Alexzandria Avalos,Geronimo Navarro,59.42,92.99,52.16,95.25,240.4,Single-ply,SBD,F,
Girls,60.1,2,Diasha Wright,Del Valle,59.42,63.5,47.63,88.45,199.58,Single-ply,SBD,F,
Girls,67.36,1,Ashley Gosch,Geronimo Navarro,66.59,142.88,79.38,138.35,360.61,Single-ply,SBD,F,
Girls,67.36,2,Sarah Howard,Geronimo Navarro,65.32,131.54,81.65,122.47,335.66,Single-ply,SBD,F,
Girls,75.07,1,Kayla DeLeon,Geronimo Navarro,74.84,147.42,95.25,145.15,387.82,Single-ply,SBD,F,
Girls,75.07,2,Kaitlin Menchaca,Geronimo Navarro,68.95,124.74,90.72,129.27,344.73,Single-ply,SBD,F,
Girls,75.07,3,Brooke Carle,Geronimo Navarro,72.39,122.47,86.18,131.54,340.19,Single-ply,SBD,F,
Girls,75.07,4,Hadlee Wilson,Geronimo Navarro,73.84,102.06,58.97,113.4,274.42,Single-ply,SBD,F,
Girls,75.07,5,Ashton Govett,Geronimo Navarro,72.12,97.52,56.7,106.59,260.82,Single-ply,SBD,F,
Girls,75.07,6,Samantha Sanchez,Marion,72.76,92.99,47.63,108.86,249.48,Single-ply,SBD,F,
Girls,75.07,7,Illayana Sustaita,Del Valle,72.76,86.18,52.16,102.06,240.4,Single-ply,SBD,F,
Girls,82.33,1,Liah Villareal,Marion,79.29,61.23,27.22,56.7,145.15,Single-ply,SBD,F,
Girls,82.33,2,Breya Tate,Geronimo Navarro,75.98,40.82,29.48,72.57,142.88,Single-ply,SBD,F,
Girls,90.04,1,Jackie Fly,Marion,88.09,129.27,70.31,140.61,340.19,Single-ply,SBD,F,
Girls,100.02,1,Paola Losoya,Del Valle,95.44,97.52,58.97,113.4,269.89,Single-ply,SBD,F,
Girls,117.71,1,Alondra Hernandez,Geronimo Navarro,116.57,74.84,72.57,86.18,233.6,Single-ply,SBD,F,
Girls,117.71+,1,Kayla Suaste,Del Valle,130.73,142.88,83.91,131.54,358.34,Single-ply,SBD,F,
