Division,WeightClassKg,Place,Name,Team,BodyweightKg,Best3SquatKg,Best3BenchKg,Best3DeadliftKg,TotalKg,Equipment,Event,Sex,BirthDate
Boys,51.71,1,Zander Henderson,Troy,50.03,131.54,68.04,129.27,328.85,Single-ply,SBD,M,
Boys,51.71,2,Enrique Davila,San Saba,51.12,124.74,49.9,145.15,319.78,Single-ply,SBD,M,
Boys,51.71,3,Keegan Mantanona,Salado,51.44,117.93,63.5,124.74,306.17,Single-ply,SBD,M,
Boys,51.71,4,Luis Rodriquez,Crawford,51.62,102.06,70.31,115.67,288.03,Single-ply,SBD,M,
Boys,51.71,5,Cole Barr,Hico,45.81,90.72,56.7,99.79,247.21,Single-ply,SBD,M,
Boys,51.71,6,Gage Woodring,Millsap,45.22,86.18,47.63,92.99,226.8,Single-ply,SBD,M,
Boys,51.71,7,Jimmy Duncan,Strawn,49.17,79.38,45.36,70.31,195.04,Single-ply,SBD,M,
Boys,51.71,DQ,Tyler Anglin,Bangs,51.53,81.65,,,,Single-ply,SBD,M,
Boys,51.71,DQ,Tyler Hinds,Rio Vista,49.4,90.72,,,,Single-ply,SBD,M,
Boys,55.79,1,Johnathan Strickland,Lampasas,55.29,140.61,70.31,140.61,351.53,Single-ply,SBD,M,
Boys,55.79,2,Trey Orsinin,Strawn,55.11,127.01,63.5,138.35,328.85,Single-ply,SBD,M,
Boys,55.79,3,Jayden Crouch,Hico,53.07,136.08,61.23,124.74,322.05,Single-ply,SBD,M,
Boys,55.79,4,Sean Murphy,Hico,53.07,111.13,63.5,127.01,301.64,Single-ply,SBD,M,
Boys,55.79,5,Jacob Foster,Rio Vista,55.61,111.13,58.97,117.93,288.03,Single-ply,SBD,M,
Boys,55.79,6,Tyler Case,Dawson,54.34,95.25,52.16,136.08,283.5,Single-ply,SBD,M,
Boys,55.79,7,David Villialpando,Hico,55.79,97.52,61.23,117.93,276.69,Single-ply,SBD,M,
Boys,55.79,8,Jaden Young,Stephenville,53.84,102.06,65.77,102.06,269.89,Single-ply,SBD,M,
Boys,55.79,9,Jaxzen Mask,San Saba,52.66,83.91,38.56,92.99,215.46,Single-ply,SBD,M,
Boys,55.79,10,Jaden Robinson,Stephenville,53.12,74.84,47.63,86.18,208.65,Single-ply,SBD,M,
Boys,59.87,1,Brady Bearden,Troy,58.65,181.44,129.27,181.44,492.15,Single-ply,SBD,M,
Boys,59.87,2,Hunter Burton,Millsap,58.74,188.24,90.72,151.95,430.91,Single-ply,SBD,M,
Boys,59.87,3,Damien Santillanes,Bangs,59.06,156.49,92.99,174.63,424.11,Single-ply,SBD,M,
Boys,59.87,4,Logan Stein,Tolar,58.56,127.01,86.18,124.74,337.93,Single-ply,SBD,M,
Boys,59.87,5,Angel Gonzales #1,Hico,59.87,124.74,61.23,145.15,331.12,Single-ply,SBD,M,
Boys,59.87,6,Manny Gomez,Maypearl,58.97,104.33,70.31,129.27,303.91,Single-ply,SBD,M,
Boys,59.87,7,Kyler Tunnel,Strawn,57.24,108.86,61.23,117.93,288.03,Single-ply,SBD,M,
Boys,59.87,8,Derek Alvarado,Salado,57.92,106.59,61.23,115.67,283.5,Single-ply,SBD,M,
Boys,59.87,9,Adam Decorte,Stephenville,56.65,106.59,65.77,102.06,274.42,Single-ply,SBD,M,
Boys,59.87,10,Shane Christiansen,Troy,57.15,95.25,47.63,102.06,244.94,Single-ply,SBD,M,
Boys,59.87,11,Jesse Pierce,Troy,57.33,81.65,52.16,90.72,224.53,Single-ply,SBD,M,
Boys,59.87,12,Sloan Tucker,Troy,56.79,74.84,43.09,97.52,215.46,Single-ply,SBD,M,
Boys,67.13,1,Jw Montgomery,Strawn,66.59,181.44,154.22,181.44,517.1,Single-ply,SBD,M,
Boys,67.13,2,Ryan McBurney,Salado,66.86,154.22,86.18,181.44,421.84,Single-ply,SBD,M,
Boys,67.13,3,Cody Stone,Moody,66.36,149.69,65.77,151.95,367.41,Single-ply,SBD,M,
Boys,67.13,4,Brandon Sisson,Bangs,60.42,136.08,70.31,156.49,362.87,Single-ply,SBD,M,
Boys,67.13,5,Trenton Sizemore,Strawn,63.37,145.15,70.31,147.42,362.87,Single-ply,SBD,M,
Boys,67.13,6,Eric Zendejas,Hico,67.09,136.08,74.84,151.95,362.87,Single-ply,SBD,M,
Boys,67.13,7,Adan Huron,San Saba,60.69,133.81,74.84,149.69,358.34,Single-ply,SBD,M,
Boys,67.13,8,Jake Bryan,Santo,62.37,136.08,86.18,136.08,358.34,Single-ply,SBD,M,
Boys,67.13,9,Trey Pender,Santo,66.95,136.08,68.04,154.22,358.34,Single-ply,SBD,M,
Boys,67.13,10,Keshawn McElwain,Lampasas,61.01,131.54,81.65,142.88,356.07,Single-ply,SBD,M,
Boys,67.13,11,Kaeson Raub,Lampasas,64,131.54,92.99,129.27,353.8,Single-ply,SBD,M,
Boys,67.13,12,Logan Borkowski,Crawford,65.77,136.08,102.06,115.67,353.8,Single-ply,SBD,M,
Boys,67.13,13,Wyatt Johnson,Rio Vista,62.23,133.81,68.04,149.69,351.53,Single-ply,SBD,M,
Boys,67.13,14,Jakob Jankowski,Dawson,63.5,140.61,65.77,145.15,351.53,Single-ply,SBD,M,
Boys,67.13,15,Zuriel Herrera,San Saba,65.18,122.47,70.31,158.76,351.53,Single-ply,SBD,M,
Boys,67.13,16,Reese Polk,Hico,65.68,129.27,74.84,142.88,347,Single-ply,SBD,M,
Boys,67.13,17,Santos Matta,Stephenville,64.14,115.67,72.57,156.49,344.73,Single-ply,SBD,M,
Boys,67.13,18,Jake Byrd,Santo,65.05,124.74,61.23,156.49,342.46,Single-ply,SBD,M,
Boys,67.13,19,Leo DeLatorre,Strawn,60.51,129.27,90.72,117.93,337.93,Single-ply,SBD,M,
Boys,67.13,20,Brayden Weathers,Millsap,66.63,124.74,68.04,113.4,306.17,Single-ply,SBD,M,
Boys,67.13,21,Brayden Newcomb,Santo,66.77,120.2,56.7,117.93,294.84,Single-ply,SBD,M,
Boys,67.13,22,Lj Salvador,Troy,61.6,99.79,54.43,136.08,290.3,Single-ply,SBD,M,
Boys,67.13,DQ,Gavin Green,Moody,64.68,181.44,147.42,,,Single-ply,SBD,M,
Boys,74.84,1,Gilberto Baez,San Saba,73.35,195.04,108.86,247.21,551.11,Single-ply,SBD,M,
Boys,74.84,2,TraShawn Hill,Moody,73.21,197.31,124.74,226.8,548.85,Single-ply,SBD,M,
Boys,74.84,3,Luis Ramírez,San Saba,74.16,195.04,111.13,195.04,501.22,Single-ply,SBD,M,
Boys,74.84,4,Luis Castro,Lampasas,71.44,183.7,106.59,188.24,478.54,Single-ply,SBD,M,
Boys,74.84,5,Basey Mitchell,Millsap,68.86,188.24,92.99,176.9,458.13,Single-ply,SBD,M,
Boys,74.84,6,Kody Arsenault,Rio Vista,73.66,158.76,136.08,158.76,453.59,Single-ply,SBD,M,
Boys,74.84,7,Trevor Lorah,Bangs,68.86,147.42,106.59,170.1,424.11,Single-ply,SBD,M,
Boys,74.84,8,Chris Bates,Salado,74.84,165.56,99.79,156.49,421.84,Single-ply,SBD,M,
Boys,74.84,9,Jett Millsop,Strawn,73.3,138.35,102.06,174.63,415.04,Single-ply,SBD,M,
Boys,74.84,10,Josh Kinnard,Sidney,73.98,142.88,90.72,181.44,415.04,Single-ply,SBD,M,
Boys,74.84,11,Colby Farquhar,Santo,68.27,151.95,90.72,165.56,408.23,Single-ply,SBD,M,
Boys,74.84,12,Vinny Blount,Troy,74.12,142.88,111.13,151.95,405.97,Single-ply,SBD,M,
Boys,74.84,13,Easton McClean,Hico,74.57,151.95,104.33,145.15,401.43,Single-ply,SBD,M,
Boys,74.84,14,Sam Henderson #1,Santo,71.85,138.35,92.99,151.95,383.29,Single-ply,SBD,M,
Boys,74.84,15,Brodee Pack,Stephenville,73.53,124.74,88.45,158.76,371.95,Single-ply,SBD,M,
Boys,74.84,16,Kyler Eudy,Stephenville,70.67,142.88,83.91,142.88,369.68,Single-ply,SBD,M,
Boys,74.84,17,Zackary Villareal,Stephenville,67.99,124.74,81.65,136.08,342.46,Single-ply,SBD,M,
Boys,74.84,18,Diago Pena,Troy,69.04,122.47,79.38,140.61,342.46,Single-ply,SBD,M,
Boys,74.84,19,John Fraga,Strawn,74.84,117.93,77.11,142.88,337.93,Single-ply,SBD,M,
Boys,74.84,20,Logan Sides,Santo,70.76,124.74,70.31,138.35,333.39,Single-ply,SBD,M,
Boys,74.84,21,Brian Fisher,Maypearl,74.25,117.93,70.31,142.88,331.12,Single-ply,SBD,M,
Boys,74.84,22,Brayden McMichael,Millsap,70.76,117.93,70.31,124.74,312.98,Single-ply,SBD,M,
Boys,74.84,23,Anthony Goodwin,Crawford,67.86,108.86,58.97,136.08,303.91,Single-ply,SBD,M,
Boys,74.84,24,Trevor McCombie,Rio Vista,72.44,106.59,72.57,115.67,294.84,Single-ply,SBD,M,
Boys,74.84,25,Matthew Ray,Maypearl,74.12,108.86,70.31,108.86,288.03,Single-ply,SBD,M,
Boys,74.84,DQ,Mason White,Rio Vista,73.35,,,,,Single-ply,SBD,M,
Boys,74.84,DQ,JoeWalt Holcomb,Millsap,69.94,,,,,Single-ply,SBD,M,
Boys,74.84,DQ,Tyler Wilson #8,Jonesboro,73.39,113.4,61.23,,,Single-ply,SBD,M,
Boys,82.1,1,Weston Reid,Lampasas,81.37,226.8,120.2,222.26,569.26,Single-ply,SBD,M,
Boys,82.1,2,Greg Washington,Salado,79.47,208.65,127.01,213.19,548.85,Single-ply,SBD,M,
Boys,82.1,3,Ruben Reyes,Stephenville,77.88,192.78,122.47,222.26,537.51,Single-ply,SBD,M,
Boys,82.1,4,Jace Carr,Troy,81.74,208.65,124.74,192.78,526.17,Single-ply,SBD,M,
Boys,82.1,5,Da'Mariyea Hamilton,Dawson,77.61,197.31,117.93,208.65,523.9,Single-ply,SBD,M,
Boys,82.1,6,Levi Elkins,Dawson,78.7,208.65,106.59,204.12,519.36,Single-ply,SBD,M,
Boys,82.1,7,Kc Perkins,Salado,80.33,172.37,122.47,172.37,467.2,Single-ply,SBD,M,
Boys,82.1,8,Aden Rascoe,Lampasas,82.05,172.37,108.86,174.63,455.86,Single-ply,SBD,M,
Boys,82.1,9,Jasen Stephens,Tolar,75.75,163.29,111.13,170.1,444.52,Single-ply,SBD,M,
Boys,82.1,10,Brendon Taylor,Hico,80.92,181.44,86.18,174.63,442.25,Single-ply,SBD,M,
Boys,82.1,11,Auston McBroom,Millsap,77.29,181.44,95.25,158.76,435.45,Single-ply,SBD,M,
Boys,82.1,12,Juble Stevens,Millsap,78.2,158.76,90.72,185.97,435.45,Single-ply,SBD,M,
Boys,82.1,13,Braydon Sumners,Salado,78.74,170.1,111.13,149.69,430.91,Single-ply,SBD,M,
Boys,82.1,14,Landon Gilstrap,Troy,76.79,156.49,90.72,165.56,412.77,Single-ply,SBD,M,
Boys,82.1,15,Cesar Navarro,Millsap,75.02,154.22,83.91,170.1,408.23,Single-ply,SBD,M,
Boys,82.1,16,Kaleb Sanders,Jonesboro,76.34,140.61,97.52,156.49,394.63,Single-ply,SBD,M,
Boys,82.1,17,Jacob Mitchell,Crawford,77.2,154.22,83.91,156.49,394.63,Single-ply,SBD,M,
Boys,82.1,18,Brock Owens,Tolar,77.2,133.81,102.06,149.69,385.55,Single-ply,SBD,M,
Boys,82.1,19,Brayden Stoker,Stephenville,78.24,120.2,83.91,138.35,342.46,Single-ply,SBD,M,
Boys,82.1,20,Zak Moses,Rio Vista,81.15,102.06,70.31,113.4,285.76,Single-ply,SBD,M,
Boys,82.1,21,Ethan Williamson,Troy,78.65,97.52,61.23,113.4,272.16,Single-ply,SBD,M,
Boys,89.81,1,Braegan Berry,Tolar,88.59,233.6,129.27,219.99,582.87,Single-ply,SBD,M,
Boys,89.81,2,Caleb Smith,Stephenville,89.45,197.31,138.35,213.19,548.85,Single-ply,SBD,M,
Boys,89.81,3,Stone Sears,San Saba,85.37,190.51,131.54,217.72,539.77,Single-ply,SBD,M,
Boys,89.81,4,Aidan Wilson,Salado,87.09,204.12,117.93,195.04,517.1,Single-ply,SBD,M,
Boys,89.81,5,Alex DeLeon,Stephenville,89.72,190.51,115.67,181.44,487.61,Single-ply,SBD,M,
Boys,89.81,6,Blake Volk,Salado,89.49,176.9,122.47,185.97,485.34,Single-ply,SBD,M,
Boys,89.81,7,Ian McKinney,Lampasas,87.91,204.12,88.45,188.24,480.81,Single-ply,SBD,M,
Boys,89.81,8,Aldo Calvillo,Millsap,88.99,219.99,72.57,183.7,476.27,Single-ply,SBD,M,
Boys,89.81,9,Timmmy Gracey,Maypearl,89.27,176.9,97.52,190.51,464.93,Single-ply,SBD,M,
Boys,89.81,10,Eddie Guerra,Dawson,84.64,167.83,102.06,181.44,451.32,Single-ply,SBD,M,
Boys,89.81,11,Hunter Mach,Moody,87.32,176.9,104.33,167.83,449.06,Single-ply,SBD,M,
Boys,89.81,12,Jayten Burt,Salado,89.68,161.03,90.72,165.56,417.3,Single-ply,SBD,M,
Boys,89.81,13,Dray McLane,Salado,88.86,158.76,88.45,161.03,408.23,Single-ply,SBD,M,
Boys,89.81,14,Kevin Bowery,Stephenville,83.91,147.42,88.45,151.95,387.82,Single-ply,SBD,M,
Boys,89.81,15,Homero Arizpe,Maypearl,84.55,147.42,92.99,147.42,387.82,Single-ply,SBD,M,
Boys,89.81,16,Brayden Smith,Santo,84.23,154.22,81.65,147.42,383.29,Single-ply,SBD,M,
Boys,89.81,17,Dylan Peek,Maypearl,83.01,145.15,88.45,142.88,376.48,Single-ply,SBD,M,
Boys,89.81,18,Tyler Minshew,Lampasas,83.91,129.27,83.91,151.95,365.14,Single-ply,SBD,M,
Boys,89.81,19,Javier Zuniga,Hico,85.28,127.01,81.65,145.15,353.8,Single-ply,SBD,M,
Boys,89.81,DQ,Daunte Cuffie,Lampasas,84.87,226.8,154.22,,,Single-ply,SBD,M,
Boys,99.79,1,Dylan Froehlich,Moody,96.62,244.94,142.88,238.14,625.96,Single-ply,SBD,M,
Boys,99.79,2,Landin Short,San Saba,98.88,226.8,154.22,238.14,619.15,Single-ply,SBD,M,
Boys,99.79,3,Gabe Juarez,Stephenville,95.16,195.04,108.86,208.65,512.56,Single-ply,SBD,M,
Boys,99.79,4,Zachary Chavarria,Stephenville,93.85,174.63,102.06,195.04,471.74,Single-ply,SBD,M,
Boys,99.79,5,Kyle Worrell,Crawford,96.48,181.44,102.06,176.9,460.4,Single-ply,SBD,M,
Boys,99.79,6,Justin Baker,Strawn,92.9,190.51,104.33,163.29,458.13,Single-ply,SBD,M,
Boys,99.79,7,Spells Cam'ron,Sidney,94.3,181.44,104.33,172.37,458.13,Single-ply,SBD,M,
Boys,99.79,8,Chance Hill,Salado,96.39,170.1,113.4,174.63,458.13,Single-ply,SBD,M,
Boys,99.79,9,Cameron Brack,Lampasas,97.11,181.44,113.4,158.76,453.59,Single-ply,SBD,M,
Boys,99.79,10,Bryce Dobbins,Salado,96.93,163.29,104.33,174.63,442.25,Single-ply,SBD,M,
Boys,99.79,11,Jesse Taylor,Maypearl,98.57,158.76,104.33,172.37,435.45,Single-ply,SBD,M,
Boys,99.79,12,Damien Snell,Millsap,99.47,158.76,92.99,181.44,433.18,Single-ply,SBD,M,
Boys,99.79,13,Dylanger Meiron,Stephenville,92.26,147.42,97.52,172.37,417.3,Single-ply,SBD,M,
Boys,99.79,14,Robert Gomez,Maypearl,89.99,108.86,74.84,185.97,369.68,Single-ply,SBD,M,
Boys,99.79,15,Gavin Blackmon,Santo,91.08,136.08,72.57,156.49,365.14,Single-ply,SBD,M,
Boys,99.79,16,Tanner Nelson,Maypearl,96.93,102.06,97.52,163.29,362.87,Single-ply,SBD,M,
Boys,99.79,17,Tyler Patton,Stephenville,95.57,129.27,81.65,140.61,351.53,Single-ply,SBD,M,
Boys,99.79,18,Lex Laursen,Santo,92.22,108.86,70.31,136.08,315.25,Single-ply,SBD,M,
Boys,99.79,19,Caleb Freizel,Troy,93.85,102.06,81.65,131.54,315.25,Single-ply,SBD,M,
Boys,99.79,DQ,Joseph Darting,Troy,93.8,120.2,,,,Single-ply,SBD,M,
Boys,99.79,DQ,Jose Alcantara,Dawson,90.67,,,,,Single-ply,SBD,M,
Boys,109.77,1,Zane Guerra,Dawson,107.91,226.8,145.15,222.26,594.21,Single-ply,SBD,M,
Boys,109.77,2,Avery Womack,Salado,103.19,210.92,138.35,215.46,564.72,Single-ply,SBD,M,
Boys,109.77,3,Brent Batch,Rio Vista,108.18,188.24,142.88,226.8,557.92,Single-ply,SBD,M,
Boys,109.77,4,Kofi Stoglin,Salado,102.87,192.78,140.61,199.58,532.97,Single-ply,SBD,M,
Boys,109.77,5,Cameron Spain,Dawson,104.14,185.97,113.4,208.65,508.02,Single-ply,SBD,M,
Boys,109.77,6,Daniel Herrera,San Saba,107.37,226.8,108.86,170.1,505.76,Single-ply,SBD,M,
Boys,109.77,7,Wyatt Faulkner,Jonesboro,108.45,170.1,108.86,192.78,471.74,Single-ply,SBD,M,
Boys,109.77,8,Beau Hill,Salado,102.29,174.63,113.4,176.9,464.93,Single-ply,SBD,M,
Boys,109.77,9,Damian Meza,Stephenville,105.1,176.9,108.86,174.63,460.4,Single-ply,SBD,M,
Boys,109.77,10,Mason Butchee,Stephenville,104.37,163.29,133.81,151.95,449.06,Single-ply,SBD,M,
Boys,109.77,11,Kade Hayes,Salado,104.78,161.03,102.06,154.22,417.3,Single-ply,SBD,M,
Boys,109.77,12,White Jacob,Tolar,103.6,136.08,68.04,113.4,317.51,Single-ply,SBD,M,
Boys,109.77,13,Donald Bush,Troy,102.38,102.06,61.23,120.2,283.5,Single-ply,SBD,M,
Boys,109.77,14,Clayton Merrifield,Tolar,100.11,102.06,61.23,113.4,276.69,Single-ply,SBD,M,
Boys,109.77,DQ,Damon McClary,Hico,108.59,,,,,Single-ply,SBD,M,
Boys,124.74,1,Ryan Poe,Salado,115.39,233.6,158.76,213.19,605.55,Single-ply,SBD,M,
Boys,124.74,2,Ethan Cumins,Rio Vista,122.88,229.06,136.08,229.06,594.21,Single-ply,SBD,M,
Boys,124.74,3,Cristian Ramirez,San Saba,118.98,226.8,106.59,188.24,521.63,Single-ply,SBD,M,
Boys,124.74,4,Caden Melton,Lampasas,121.38,213.19,136.08,165.56,514.83,Single-ply,SBD,M,
Boys,124.74,5,Adrian Montano,Stephenville,117.03,204.12,115.67,181.44,501.22,Single-ply,SBD,M,
Boys,124.74,6,Oscar Gaona,Valley Mills,119.48,204.12,97.52,185.97,487.61,Single-ply,SBD,M,
Boys,124.74,7,Max Hopkins,Strawn,110.77,192.78,95.25,170.1,458.13,Single-ply,SBD,M,
Boys,124.74,8,Steven Delamora,Troy,118.25,174.63,97.52,174.63,446.79,Single-ply,SBD,M,
Boys,124.74,9,Andy Cumins,Rio Vista,110.27,142.88,90.72,145.15,378.75,Single-ply,SBD,M,
Boys,124.74,10,Skyler Dehn,Troy,115.35,133.81,74.84,140.61,349.27,Single-ply,SBD,M,
Boys,124.74,11,Darrion Malino,Rio Vista,112.85,117.93,83.91,113.4,315.25,Single-ply,SBD,M,
Boys,124.74+,1,Weston Klemcke,Valley Mills,152,231.33,145.15,235.87,612.35,Single-ply,SBD,M,
Boys,124.74+,2,Bryan Reza,San Saba,126.1,208.65,163.29,226.8,598.74,Single-ply,SBD,M,
Boys,124.74+,3,Quamaine Robinson,Dawson,139.66,238.14,158.76,195.04,591.94,Single-ply,SBD,M,
Boys,124.74+,4,Gavyn Keyser,Salado,134.72,222.26,163.29,204.12,589.67,Single-ply,SBD,M,
Boys,124.74+,5,Logan Davis,Stephenville,130.27,215.46,145.15,226.8,587.4,Single-ply,SBD,M,
Boys,124.74+,6,Jake Knuppel,Crawford,148.73,242.67,124.74,199.58,566.99,Single-ply,SBD,M,
Boys,124.74+,7,Brandon Bartek,Moody,137.8,210.92,145.15,183.7,539.77,Single-ply,SBD,M,
Boys,124.74+,8,Jayce McBride,Moody,138.98,217.72,127.01,195.04,539.77,Single-ply,SBD,M,
Boys,124.74+,9,Davis Orr,Moody,128.55,179.17,145.15,204.12,528.44,Single-ply,SBD,M,
Boys,124.74+,10,Gavin Sharp,Stephenville,138.07,192.78,127.01,199.58,519.36,Single-ply,SBD,M,
Boys,124.74+,11,Guage Miller,Troy,145.01,183.7,129.27,161.03,474,Single-ply,SBD,M,
Boys,124.74+,DQ,Jacob Solis,Bangs,126.73,,,,,Single-ply,SBD,M,
Boys,124.74+,DQ,Josh Encinia,Dawson,138.89,244.94,131.54,,,Single-ply,SBD,M,
