Division,WeightClassKg,Place,Name,Team,BodyweightKg,Best3SquatKg,Best3BenchKg,Best3DeadliftKg,TotalKg,Equipment,Event,Sex,BirthDate
Girls,44.23,1,Saleen Nyman,Perryton,43.27,129.27,61.23,117.93,308.44,Single-ply,SBD,F,
Girls,44.23,2,Trinity Ramos,Friona,43.77,70.31,36.29,83.91,190.51,Single-ply,SBD,F,
Girls,47.85,1,Abby Mares,Dumas,47.81,113.4,61.23,111.13,285.76,Single-ply,SBD,F,
Girls,47.85,2,Emma Rangel,Sunray,47.04,115.67,38.56,108.86,263.08,Single-ply,SBD,F,
Girls,47.85,3,Emilie Rios,Dumas,47.85,97.52,61.23,102.06,260.82,Single-ply,SBD,F,
Girls,47.85,4,Mia Reynaga,Dumas,47.45,90.72,54.43,92.99,238.14,Single-ply,SBD,F,
Girls,47.85,5,Camryn Kelso,Vega,47.85,90.72,40.82,99.79,231.33,Single-ply,SBD,F,
Girls,47.85,6,Journee Mekdara,Dumas,46.54,81.65,38.56,79.38,199.58,Single-ply,SBD,F,
Girls,47.85,7,Amor Espinoza,Friona,46.08,56.7,24.95,86.18,167.83,Single-ply,SBD,F,
Girls,47.85,DQ,Lyndsi Espinoza,Tulia,46.27,,,,,Single-ply,SBD,F,
Girls,51.94,1,Evyn Winborne,Panhandle,51.03,111.13,58.97,102.06,272.16,Single-ply,SBD,F,
Girls,51.94,2,Andrea Bedoy,Dumas,51.85,104.33,47.63,115.67,267.62,Single-ply,SBD,F,
Girls,51.94,3,Damita Estrada,Dumas,51.26,90.72,45.36,104.33,240.4,Single-ply,SBD,F,
Girls,56.02,1,Britney Olivas,Dumas,55.34,133.81,74.84,129.27,337.93,Single-ply,SBD,F,
Girls,56.02,2,Brianna Cortez,Perryton,55.11,136.08,54.43,127.01,317.51,Single-ply,SBD,F,
Girls,56.02,3,Dalia Becerril,Perryton,55.25,129.27,65.77,117.93,312.98,Single-ply,SBD,F,
Girls,56.02,4,Mariana Rosales,Tulia,53.93,142.88,52.16,104.33,299.37,Single-ply,SBD,F,
Girls,56.02,5,Jenny Danh,Dumas,53.93,97.52,61.23,113.4,272.16,Single-ply,SBD,F,
Girls,56.02,6,Emory Buchenau,Dumas,55.93,90.72,65.77,102.06,258.55,Single-ply,SBD,F,
Girls,60.1,1,Vanessa Martinez,Dumas,57.11,120.2,68.04,120.2,308.44,Single-ply,SBD,F,
Girls,60.1,2,Magdalena Licerio,Friona,59.65,102.06,61.23,115.67,278.96,Single-ply,SBD,F,
Girls,60.1,3,Areli Mercado,Tulia,59.74,113.4,52.16,113.4,278.96,Single-ply,SBD,F,
Girls,60.1,4,Arianna Gallegos,Sunray,59.74,97.52,49.9,111.13,258.55,Single-ply,SBD,F,
Girls,60.1,5,Elexia Dominguez,Dalhart,58.83,97.52,43.09,97.52,238.14,Single-ply,SBD,F,
Girls,60.1,6,Janessa Garcia,Friona,59.51,81.65,40.82,90.72,213.19,Single-ply,SBD,F,
Girls,67.36,1,Caryce Guerrero,Dalhart,66.72,149.69,79.38,145.15,374.21,Single-ply,SBD,F,
Girls,67.36,2,Karyme Rojo,Perryton,65.68,127.01,58.97,127.01,312.98,Single-ply,SBD,F,
Girls,67.36,3,Daniela Bustillos,Sunray,60.33,117.93,56.7,136.08,310.71,Single-ply,SBD,F,
Girls,67.36,4,Marti Ramirez,Tulia,66.04,113.4,61.23,113.4,288.03,Single-ply,SBD,F,
Girls,67.36,5,Gladys Gonzalez,Sunray,62.78,106.59,63.5,115.67,285.76,Single-ply,SBD,F,
Girls,67.36,6,Aliah Jenkins,Dumas,63.5,106.59,65.77,111.13,283.5,Single-ply,SBD,F,
Girls,67.36,7,Lauren Van Dyk,Sunray,65.73,102.06,58.97,115.67,276.69,Single-ply,SBD,F,
Girls,67.36,8,Camery Applegate,Panhandle,66.41,68.04,29.48,74.84,172.37,Single-ply,SBD,F,
Girls,67.36,DQ,Evelyn Becerril,Perryton,63.37,124.74,,,,Single-ply,SBD,F,
Girls,75.07,1,Lupita Ramirez,Perryton,72.98,181.44,92.99,165.56,439.98,Single-ply,SBD,F,
Girls,75.07,2,Nuvia Gonzalez,Perryton,73.89,154.22,63.5,145.15,362.87,Single-ply,SBD,F,
Girls,75.07,3,Marlene Rodriguez,Dumas,75.07,136.08,70.31,142.88,349.27,Single-ply,SBD,F,
Girls,75.07,4,Galy Davila,Dumas,72.71,142.88,79.38,122.47,344.73,Single-ply,SBD,F,
Girls,75.07,5,Savannah Cantu,Tulia,73.71,136.08,63.5,133.81,333.39,Single-ply,SBD,F,
Girls,75.07,6,Aliza Salas,Dumas,68.63,106.59,79.38,115.67,301.64,Single-ply,SBD,F,
Girls,75.07,7,Valeria Rojo,Dalhart,68.49,108.86,43.09,117.93,269.89,Single-ply,SBD,F,
Girls,75.07,8,Breanna Cooper,Sunray,72.62,102.06,52.16,104.33,258.55,Single-ply,SBD,F,
Girls,75.07,9,Megan Tolleson,Tulia,73.44,86.18,45.36,90.72,222.26,Single-ply,SBD,F,
Girls,82.33,1,Marisol Ramirez,Perryton,81.19,170.1,77.11,156.49,403.7,Single-ply,SBD,F,
Girls,82.33,2,Zowie Watt,Vega,77.47,142.88,68.04,140.61,351.53,Single-ply,SBD,F,
Girls,82.33,DQ,Alyson Ortiz,Perryton,81.24,,,,,Single-ply,SBD,F,
Girls,90.04,1,Jacquelyn Olivas,Vega,84.19,174.63,108.86,147.42,430.91,Single-ply,SBD,F,
Girls,90.04,2,Itzel Cigarroa,Perryton,88.18,170.1,88.45,167.83,426.38,Single-ply,SBD,F,
Girls,90.04,3,Veronica Salinas,Tulia,86.14,165.56,72.57,145.15,383.29,Single-ply,SBD,F,
Girls,90.04,4,Ángel Sánchez #1,Dumas,87.77,149.69,81.65,149.69,381.02,Single-ply,SBD,F,
Girls,90.04,5,Ahtziri Soltero,Friona,89.54,136.08,47.63,115.67,299.37,Single-ply,SBD,F,
Girls,90.04,6,Justisse Lenz,Dalhart,88.54,79.38,45.36,97.52,222.26,Single-ply,SBD,F,
Girls,100.02,1,Andrea Fabela,Perryton,91.4,215.46,120.2,142.88,478.54,Single-ply,SBD,F,
Girls,100.02,2,Brianna Bustamante,Dumas,96.12,156.49,72.57,149.69,378.75,Single-ply,SBD,F,
Girls,100.02,3,Jaida Castellon,Tulia,95.89,102.06,56.7,92.99,251.74,Single-ply,SBD,F,
Girls,100.02,DQ,Mia Gray,Sunray,97.89,,,,,Single-ply,SBD,F,
Girls,117.71,1,Marisol Mendoza,Dumas,112.54,163.29,90.72,156.49,410.5,Single-ply,SBD,F,
Girls,117.71,2,Abby Vargas,Perryton,116.8,129.27,68.04,136.08,333.39,Single-ply,SBD,F,
Girls,117.71,3,Ana Rivera,Dumas,113.67,77.11,49.9,111.13,238.14,Single-ply,SBD,F,
