Place,Name,Sex,BirthDate,Age,Country,State,Equipment,Division,Tested,BodyweightKg,WeightClassKg,Squat1Kg,Squat2Kg,Squat3Kg,Squat4Kg,Best3SquatKg,Bench1Kg,Bench2Kg,Bench3Kg,Bench4Kg,Best3BenchKg,Deadlift1Kg,Deadlift2Kg,Deadlift3Kg,Deadlift4Kg,Best3DeadliftKg,TotalKg,Event
1,Sarah Silverstein,F,1996-04-03,23,USA,WV,Wraps,Juniors 20-23,Yes,73.71,75,106.59,124.74,-138.35,,124.74,54.43,58.97,-61.23,,58.97,129.27,-142.88,-147.42,,129.27,312.98,SBD
1,Golda Perando,F,1976-02-19,43,USA,WV,Wraps,Masters 40-44,No,66.68,67.5,129.27,142.88,147.42,151.95,147.42,74.84,81.65,92.99,,92.99,147.42,161.03,172.37,,172.37,412.77,SBD
1,Mackenziane Lex,F,1992-07-08,27,USA,MD,Wraps,Open,No,69.85,75,133.81,-142.88,142.88,,142.88,63.5,70.31,-77.11,,70.31,133.81,147.42,154.22,-158.76,154.22,367.41,SBD
1,Golda Perando,F,1976-02-19,43,USA,WV,Wraps,Police/Fire,No,66.68,67.5,129.27,142.88,147.42,151.95,147.42,74.84,81.65,92.99,,92.99,147.42,161.03,172.37,,172.37,412.77,SBD
1,Evelynn Corvin,F,1963-03-31,56,USA,WV,Raw,Masters 55-59,Yes,95.48,90+,,,,,,45.36,54.43,-58.97,,54.43,,,,,,54.43,B
1,Evelynn Corvin,F,1963-03-31,56,USA,WV,Raw,Open,Yes,95.48,90+,,,,,,45.36,54.43,-58.97,,54.43,,,,,,54.43,B
1,Jake Carter #5,M,1999-09-08,20,USA,WV,Wraps,Juniors 20-23,No,81.19,82.5,142.88,149.69,158.76,,158.76,106.59,113.4,120.2,,120.2,183.7,192.78,206.38,,206.38,485.34,SBD
1,Jordan Bobbins,M,1996-10-01,23,USA,WV,Raw,Juniors 20-23,No,116.21,125,197.31,213.19,-226.8,,213.19,161.03,174.63,-183.7,,174.63,229.06,247.21,265.35,-272.16,265.35,653.17,SBD
1,Thomas Summerfelt,M,1998-02-03,21,USA,MD,Wraps,Juniors 20-23,Yes,81.87,82.5,-181.44,188.24,195.04,,195.04,133.81,142.88,-149.69,,142.88,183.7,-197.31,197.31,,197.31,535.24,SBD
1,Richard Murphy #1,M,1967-09-21,52,USA,PA,Wraps,Masters 50-54,Yes,64.18,67.5,156.49,163.29,167.83,,167.83,111.13,120.2,-124.74,,120.2,156.49,165.56,,,165.56,453.59,SBD
1,Tony Carter,M,1988-12-15,30,USA,WV,Wraps,Open,No,97.75,100,294.84,308.44,317.51,,317.51,206.38,217.72,,,217.72,317.51,328.85,338.38,,338.38,873.62,SBD
2,Christopher Northern,M,1995-10-02,24,USA,MD,Wraps,Open,No,91.85,100,249.48,263.08,272.16,,272.16,147.42,158.76,-165.56,,158.76,226.8,249.48,-272.16,,249.48,680.39,SBD
1,Carlos Sanchez,M,1993-01-14,26,USA,MD,Wraps,Open,No,108.86,110,210.92,229.06,249.48,-260.82,249.48,183.7,188.24,-199.58,,188.24,61.23,,,,61.23,498.95,SBD
1,Dillan Hollinshead,M,1992-12-30,26,USA,PA,Wraps,Open,No,112.49,125,272.16,285.76,294.84,,294.84,-181.44,190.51,-199.58,,190.51,294.84,310.71,322.05,,322.05,807.39,SBD
2,Sean Vanderwall,M,1990-11-14,29,USA,MD,Wraps,Open,No,122.47,125,192.78,206.38,219.99,,219.99,165.56,174.63,181.44,,181.44,233.6,247.21,-256.28,,247.21,648.64,SBD
3,Mike Grzewinski,M,1987-10-11,32,USA,VA,Wraps,Open,No,121.45,125,158.76,172.37,-181.44,,172.37,113.4,122.47,127.01,,127.01,219.99,231.33,-247.21,,231.33,530.7,SBD
1,Richard Murphy #1,M,1967-09-21,52,USA,PA,Wraps,Open,Yes,64.18,67.5,156.49,163.29,167.83,,167.83,111.13,120.2,-124.74,,120.2,156.49,165.56,,,165.56,453.59,SBD
1,Aaron Stocks,M,1993-07-01,26,USA,WV,Wraps,Open,Yes,76.88,82.5,147.42,151.95,163.29,,163.29,127.01,133.81,140.61,,140.61,183.7,201.85,208.65,,208.65,512.56,SBD
1,Daniel Rutherford,M,1986-08-26,33,USA,WV,Wraps,Open,Yes,89.81,90,165.56,183.7,190.51,,190.51,124.74,-136.08,136.08,,136.08,179.17,-188.24,-190.51,,179.17,505.76,SBD
1,Ken Lesher,M,1965-02-02,54,USA,WV,Wraps,Open,Yes,99.34,100,161.03,-183.7,-183.7,,161.03,133.81,138.35,-140.61,,138.35,183.7,-192.78,,,183.7,483.08,SBD
1,Zach Stanley,M,1992-04-24,27,USA,WV,Wraps,Open,Yes,139.71,140,238.14,249.48,-260.82,,249.48,151.95,165.56,-174.63,,165.56,224.53,235.87,247.21,,247.21,662.24,SBD
1,John Fox,M,1995-09-12,24,USA,PA,Wraps,Open,Yes,140.16,140+,226.8,240.4,-254.01,,240.4,136.08,-142.88,147.42,,147.42,265.35,274.42,278.96,288.03,278.96,666.78,SBD
1,Sean Vanderwall,M,1990-11-14,29,USA,MD,Wraps,Police/Fire,No,122.47,125,192.78,206.38,219.99,,219.99,165.56,174.63,181.44,,181.44,233.6,247.21,-256.28,,247.21,648.64,SBD
1,Michael Claggett,M,1984-04-18,35,USA,MD,Wraps,Submasters 33-39,No,114.31,125,161.03,183.7,-206.38,,183.7,142.88,161.03,183.7,-188.24,183.7,161.03,183.7,206.38,,206.38,573.79,SBD
1,Mason Austin,M,1981-09-05,38,USA,WV,Wraps,Submasters 33-39,Yes,115.67,125,181.44,190.51,-204.12,,190.51,142.88,147.42,-156.49,,147.42,181.44,192.78,197.31,204.12,197.31,535.24,SBD
1,Lucas Fuss,M,2004-09-14,15,USA,WV,Wraps,Teen 13-15,Yes,147.42,140+,192.78,215.46,229.06,,229.06,115.67,127.01,136.08,,136.08,183.7,206.38,217.72,,217.72,582.87,SBD
1,Richard Murphy #1,M,1967-09-21,52,USA,PA,Wraps,Veterans,Yes,64.18,67.5,156.49,163.29,167.83,,167.83,111.13,120.2,-124.74,,120.2,156.49,165.56,,,165.56,453.59,SBD
1,John Fox,M,1995-09-12,24,USA,PA,Wraps,Veterans,Yes,140.16,140+,226.8,240.4,-254.01,,240.4,136.08,-142.88,147.42,,147.42,265.35,274.42,278.96,288.03,278.96,666.78,SBD
1,Colton Yoder,M,2001-11-08,18,USA,WV,Raw,Teen 18-19,Yes,80.74,82.5,165.56,183.7,197.31,-206.38,197.31,,,,,,,,,,,197.31,S
1,Wayne Smith,M,1968-08-16,51,USA,WV,Raw,Masters 50-54,Yes,155.13,140+,,,,,,142.88,151.95,161.03,167.83,161.03,,,,,,161.03,B
1,Sean Moats,M,1989-06-12,30,USA,MD,Raw,Open,No,120.2,125,,,,,,170.1,179.17,-193.23,,179.17,,,,,,179.17,B
1,Mike Williams,M,1988-08-26,31,USA,WV,Raw,Open,Yes,108.5,110,,,,,,176.9,192.78,-197.31,,192.78,,,,,,192.78,B
1,Zachary Moores,M,2002-07-11,17,USA,WV,Raw,Teen 16-17,Yes,73.57,75,,,,,,120.2,129.27,133.81,-136.08,133.81,,,,,,133.81,B
1,Dylan Buckland,M,2002-04-13,17,USA,WV,Raw,Teen 16-17,Yes,79.29,82.5,,,,,,-124.74,-131.54,133.81,,133.81,,,,,,133.81,B
1,Colton Yoder,M,2001-11-08,18,USA,WV,Raw,Teen 18-19,Yes,80.74,82.5,,,,,,,,,,,179.17,197.31,208.65,-217.72,208.65,208.65,D
